%!PS-Adobe-3.0 EPSF-3.0
%%Creator: nutmeg
%%BoundingBox: 54 54 612 612
1 1 scale
/Helvetica findfont 10 scalefont setfont

[1 2] 0 setdash
[] 0 setdash
243 66 moveto
(E[V]) show
[1 2] 0 setdash
[] 0 setdash
54 331 moveto
(i[A]) show
[1 2] 0 setdash
[] 0 setdash
newpath
78 104 moveto
78 544 lineto
stroke
[1 2] 0 setdash
[] 0 setdash
72 87 moveto
(0.0) show
[1 2] 0 setdash
newpath
140 104 moveto
140 544 lineto
stroke
[] 0 setdash
134 87 moveto
(1.0) show
[1 2] 0 setdash
newpath
202 104 moveto
202 544 lineto
stroke
[] 0 setdash
196 87 moveto
(2.0) show
[1 2] 0 setdash
newpath
264 104 moveto
264 544 lineto
stroke
[] 0 setdash
258 87 moveto
(3.0) show
[1 2] 0 setdash
newpath
326 104 moveto
326 544 lineto
stroke
[] 0 setdash
320 87 moveto
(4.0) show
[1 2] 0 setdash
newpath
388 104 moveto
388 544 lineto
stroke
[] 0 setdash
382 87 moveto
(5.0) show
[1 2] 0 setdash
newpath
450 104 moveto
450 544 lineto
stroke
[] 0 setdash
444 87 moveto
(6.0) show
[1 2] 0 setdash
newpath
512 104 moveto
512 544 lineto
stroke
[] 0 setdash
506 87 moveto
(7.0) show
[1 2] 0 setdash
newpath
574 104 moveto
574 544 lineto
stroke
[] 0 setdash
568 87 moveto
(8.0) show
[1 2] 0 setdash
[] 0 setdash
382 66 moveto
(V) show
[1 2] 0 setdash
[] 0 setdash
newpath
78 104 moveto
574 104 lineto
stroke
[1 2] 0 setdash
[] 0 setdash
60 101 moveto
(0.0) show
[1 2] 0 setdash
newpath
78 159 moveto
574 159 lineto
stroke
[] 0 setdash
60 156 moveto
(0.5) show
[1 2] 0 setdash
newpath
78 214 moveto
574 214 lineto
stroke
[] 0 setdash
60 211 moveto
(1.0) show
[1 2] 0 setdash
newpath
78 269 moveto
574 269 lineto
stroke
[] 0 setdash
60 266 moveto
(1.5) show
[1 2] 0 setdash
newpath
78 324 moveto
574 324 lineto
stroke
[] 0 setdash
60 321 moveto
(2.0) show
[1 2] 0 setdash
newpath
78 379 moveto
574 379 lineto
stroke
[] 0 setdash
60 376 moveto
(2.5) show
[1 2] 0 setdash
newpath
78 434 moveto
574 434 lineto
stroke
[] 0 setdash
60 431 moveto
(3.0) show
[1 2] 0 setdash
newpath
78 489 moveto
574 489 lineto
stroke
[] 0 setdash
60 486 moveto
(3.5) show
[1 2] 0 setdash
newpath
78 544 moveto
574 544 lineto
stroke
[] 0 setdash
60 541 moveto
(4.0) show
[1 2] 0 setdash
[] 0 setdash
54 582 moveto
(A) show
[1 2] 0 setdash
[7 7] 0 setdash
newpath
296 586 moveto
320 586 lineto
stroke
[] 0 setdash
326 582 moveto
(i(Vi)) show
[7 7] 0 setdash
newpath
78 104 moveto
84 110 lineto
90 115 lineto
97 121 lineto
103 126 lineto
109 132 lineto
115 137 lineto
121 143 lineto
128 148 lineto
134 154 lineto
140 159 lineto
146 165 lineto
152 170 lineto
159 176 lineto
165 181 lineto
171 187 lineto
177 192 lineto
183 198 lineto
190 203 lineto
196 209 lineto
202 214 lineto
208 220 lineto
214 225 lineto
221 231 lineto
227 236 lineto
233 242 lineto
239 247 lineto
245 253 lineto
252 258 lineto
258 264 lineto
264 269 lineto
270 275 lineto
276 280 lineto
283 286 lineto
289 291 lineto
295 297 lineto
301 302 lineto
307 308 lineto
314 313 lineto
320 319 lineto
326 324 lineto
332 330 lineto
338 335 lineto
345 341 lineto
351 346 lineto
357 352 lineto
363 357 lineto
369 363 lineto
376 368 lineto
382 373 lineto
388 379 lineto
394 384 lineto
400 390 lineto
407 395 lineto
413 401 lineto
419 406 lineto
425 412 lineto
431 417 lineto
438 423 lineto
444 428 lineto
450 434 lineto
456 439 lineto
462 445 lineto
469 450 lineto
475 456 lineto
481 461 lineto
487 467 lineto
493 472 lineto
500 478 lineto
506 483 lineto
512 489 lineto
518 494 lineto
524 500 lineto
531 505 lineto
537 511 lineto
543 516 lineto
549 522 lineto
555 527 lineto
562 533 lineto
568 538 lineto
574 544 lineto
stroke
showpage
%%EOF
