%!PS-Adobe-3.0 EPSF-3.0
%%Creator: nutmeg
%%BoundingBox: 54 54 612 612
1 1 scale
/Helvetica findfont 10 scalefont setfont

[1 2] 0 setdash
[] 0 setdash
243 66 moveto
(t[ms]) show
[1 2] 0 setdash
[] 0 setdash
54 331 moveto
(i[A],Vs[V]) show
[1 2] 0 setdash
newpath
78 104 moveto
78 548 lineto
stroke
[] 0 setdash
66 87 moveto
(18.0) show
[1 2] 0 setdash
newpath
123 104 moveto
123 548 lineto
stroke
[] 0 setdash
111 87 moveto
(20.0) show
[1 2] 0 setdash
newpath
168 104 moveto
168 548 lineto
stroke
[] 0 setdash
156 87 moveto
(22.0) show
[1 2] 0 setdash
newpath
213 104 moveto
213 548 lineto
stroke
[] 0 setdash
201 87 moveto
(24.0) show
[1 2] 0 setdash
newpath
258 104 moveto
258 548 lineto
stroke
[] 0 setdash
246 87 moveto
(26.0) show
[1 2] 0 setdash
newpath
303 104 moveto
303 548 lineto
stroke
[] 0 setdash
291 87 moveto
(28.0) show
[1 2] 0 setdash
newpath
348 104 moveto
348 548 lineto
stroke
[] 0 setdash
336 87 moveto
(30.0) show
[1 2] 0 setdash
newpath
393 104 moveto
393 548 lineto
stroke
[] 0 setdash
381 87 moveto
(32.0) show
[1 2] 0 setdash
newpath
438 104 moveto
438 548 lineto
stroke
[] 0 setdash
426 87 moveto
(34.0) show
[1 2] 0 setdash
newpath
483 104 moveto
483 548 lineto
stroke
[] 0 setdash
471 87 moveto
(36.0) show
[1 2] 0 setdash
newpath
528 104 moveto
528 548 lineto
stroke
[] 0 setdash
516 87 moveto
(38.0) show
[1 2] 0 setdash
newpath
573 104 moveto
573 548 lineto
stroke
[] 0 setdash
561 87 moveto
(40.0) show
[1 2] 0 setdash
[] 0 setdash
382 66 moveto
(ms) show
[1 2] 0 setdash
newpath
78 104 moveto
573 104 lineto
stroke
[] 0 setdash
54 101 moveto
(-1.0) show
[1 2] 0 setdash
newpath
78 215 moveto
573 215 lineto
stroke
[] 0 setdash
54 212 moveto
(-0.5) show
[1 2] 0 setdash
[] 0 setdash
newpath
78 326 moveto
573 326 lineto
stroke
[1 2] 0 setdash
[] 0 setdash
60 323 moveto
(0.0) show
[1 2] 0 setdash
newpath
78 437 moveto
573 437 lineto
stroke
[] 0 setdash
60 434 moveto
(0.5) show
[1 2] 0 setdash
newpath
78 548 moveto
573 548 lineto
stroke
[] 0 setdash
60 545 moveto
(1.0) show
[1 2] 0 setdash
[] 0 setdash
54 582 moveto
(Units) show
[1 2] 0 setdash
[7 7] 0 setdash
newpath
295 586 moveto
319 586 lineto
stroke
[] 0 setdash
325 582 moveto
(i(Vi)) show
[7 7] 0 setdash
newpath
123 360 moveto
124 360 lineto
125 360 lineto
126 360 lineto
127 360 lineto
128 360 lineto
129 360 lineto
130 360 lineto
131 360 lineto
132 360 lineto
133 360 lineto
134 360 lineto
135 360 lineto
136 360 lineto
137 360 lineto
138 360 lineto
139 360 lineto
140 360 lineto
141 360 lineto
142 360 lineto
143 360 lineto
144 360 lineto
145 360 lineto
146 360 lineto
147 360 lineto
148 360 lineto
149 360 lineto
150 360 lineto
151 360 lineto
151 359 lineto
152 359 lineto
153 359 lineto
154 359 lineto
155 359 lineto
156 359 lineto
157 359 lineto
158 359 lineto
158 358 lineto
159 358 lineto
160 358 lineto
161 358 lineto
162 358 lineto
163 358 lineto
164 358 lineto
164 357 lineto
165 357 lineto
166 357 lineto
167 357 lineto
168 357 lineto
169 357 lineto
169 356 lineto
170 356 lineto
171 356 lineto
172 356 lineto
173 356 lineto
173 355 lineto
174 355 lineto
175 355 lineto
176 355 lineto
177 355 lineto
177 354 lineto
178 354 lineto
179 354 lineto
180 354 lineto
181 353 lineto
182 353 lineto
183 353 lineto
184 353 lineto
184 352 lineto
185 352 lineto
186 352 lineto
187 352 lineto
187 351 lineto
188 351 lineto
189 351 lineto
190 351 lineto
190 350 lineto
191 350 lineto
192 350 lineto
193 350 lineto
193 349 lineto
194 349 lineto
195 349 lineto
196 349 lineto
196 348 lineto
197 348 lineto
198 348 lineto
199 347 lineto
200 347 lineto
201 347 lineto
201 346 lineto
202 346 lineto
203 346 lineto
204 345 lineto
205 345 lineto
206 345 lineto
206 344 lineto
207 344 lineto
208 344 lineto
209 343 lineto
210 343 lineto
211 343 lineto
211 342 lineto
212 342 lineto
213 342 lineto
213 341 lineto
214 341 lineto
215 341 lineto
216 340 lineto
217 340 lineto
218 340 lineto
218 339 lineto
219 339 lineto
220 339 lineto
220 338 lineto
221 338 lineto
222 338 lineto
222 337 lineto
223 337 lineto
224 337 lineto
225 336 lineto
226 336 lineto
227 335 lineto
228 335 lineto
229 335 lineto
229 334 lineto
230 334 lineto
231 334 lineto
231 333 lineto
232 333 lineto
233 333 lineto
233 332 lineto
234 332 lineto
235 332 lineto
235 331 lineto
236 331 lineto
237 331 lineto
237 330 lineto
238 330 lineto
239 330 lineto
239 329 lineto
240 329 lineto
241 329 lineto
242 328 lineto
243 328 lineto
244 328 lineto
244 327 lineto
245 327 lineto
246 327 lineto
246 326 lineto
247 326 lineto
248 326 lineto
248 325 lineto
249 325 lineto
250 325 lineto
250 324 lineto
251 324 lineto
252 324 lineto
252 323 lineto
253 323 lineto
254 323 lineto
254 322 lineto
255 322 lineto
256 322 lineto
256 321 lineto
257 321 lineto
258 321 lineto
258 320 lineto
259 320 lineto
260 320 lineto
260 319 lineto
261 319 lineto
262 319 lineto
262 318 lineto
263 318 lineto
264 318 lineto
265 317 lineto
266 317 lineto
267 316 lineto
268 316 lineto
269 316 lineto
269 315 lineto
270 315 lineto
271 315 lineto
271 314 lineto
272 314 lineto
273 314 lineto
273 313 lineto
274 313 lineto
275 313 lineto
276 312 lineto
277 312 lineto
278 312 lineto
278 311 lineto
279 311 lineto
280 311 lineto
280 310 lineto
281 310 lineto
282 310 lineto
282 309 lineto
283 309 lineto
284 309 lineto
285 309 lineto
285 308 lineto
286 308 lineto
287 308 lineto
287 307 lineto
288 307 lineto
289 307 lineto
290 307 lineto
290 306 lineto
291 306 lineto
292 306 lineto
292 305 lineto
293 305 lineto
294 305 lineto
295 305 lineto
295 304 lineto
296 304 lineto
297 304 lineto
298 304 lineto
298 303 lineto
299 303 lineto
300 303 lineto
300 302 lineto
301 302 lineto
302 302 lineto
303 302 lineto
303 301 lineto
304 301 lineto
305 301 lineto
306 301 lineto
307 300 lineto
308 300 lineto
309 300 lineto
310 299 lineto
311 299 lineto
312 299 lineto
313 299 lineto
313 298 lineto
314 298 lineto
315 298 lineto
316 298 lineto
316 297 lineto
317 297 lineto
318 297 lineto
319 297 lineto
320 297 lineto
320 296 lineto
321 296 lineto
322 296 lineto
323 296 lineto
324 296 lineto
325 295 lineto
326 295 lineto
327 295 lineto
328 295 lineto
329 295 lineto
329 294 lineto
330 294 lineto
331 294 lineto
332 294 lineto
333 294 lineto
334 294 lineto
335 294 lineto
335 293 lineto
336 293 lineto
337 293 lineto
338 293 lineto
339 293 lineto
340 293 lineto
341 293 lineto
342 293 lineto
342 292 lineto
343 292 lineto
344 292 lineto
345 292 lineto
346 292 lineto
347 292 lineto
348 292 lineto
349 292 lineto
350 292 lineto
351 292 lineto
352 292 lineto
353 292 lineto
354 292 lineto
355 292 lineto
356 292 lineto
357 292 lineto
358 292 lineto
359 292 lineto
360 292 lineto
361 292 lineto
362 292 lineto
363 292 lineto
364 292 lineto
365 292 lineto
366 292 lineto
367 292 lineto
368 292 lineto
369 292 lineto
370 292 lineto
371 292 lineto
372 292 lineto
373 292 lineto
374 292 lineto
375 292 lineto
376 292 lineto
376 293 lineto
377 293 lineto
378 293 lineto
379 293 lineto
380 293 lineto
381 293 lineto
382 293 lineto
383 293 lineto
383 294 lineto
384 294 lineto
385 294 lineto
386 294 lineto
387 294 lineto
388 294 lineto
389 294 lineto
389 295 lineto
390 295 lineto
391 295 lineto
392 295 lineto
393 295 lineto
394 295 lineto
394 296 lineto
395 296 lineto
396 296 lineto
397 296 lineto
398 296 lineto
398 297 lineto
399 297 lineto
400 297 lineto
401 297 lineto
402 297 lineto
402 298 lineto
403 298 lineto
404 298 lineto
405 298 lineto
406 299 lineto
407 299 lineto
408 299 lineto
409 299 lineto
409 300 lineto
410 300 lineto
411 300 lineto
412 300 lineto
412 301 lineto
413 301 lineto
414 301 lineto
415 301 lineto
415 302 lineto
416 302 lineto
417 302 lineto
418 302 lineto
418 303 lineto
419 303 lineto
420 303 lineto
421 303 lineto
421 304 lineto
422 304 lineto
423 304 lineto
424 305 lineto
425 305 lineto
426 305 lineto
426 306 lineto
427 306 lineto
428 306 lineto
429 307 lineto
430 307 lineto
431 307 lineto
431 308 lineto
432 308 lineto
433 308 lineto
434 309 lineto
435 309 lineto
436 309 lineto
436 310 lineto
437 310 lineto
438 310 lineto
438 311 lineto
439 311 lineto
440 311 lineto
441 312 lineto
442 312 lineto
443 312 lineto
443 313 lineto
444 313 lineto
445 313 lineto
445 314 lineto
446 314 lineto
447 314 lineto
447 315 lineto
448 315 lineto
449 315 lineto
450 316 lineto
451 316 lineto
452 317 lineto
453 317 lineto
454 317 lineto
454 318 lineto
455 318 lineto
456 318 lineto
456 319 lineto
457 319 lineto
458 319 lineto
458 320 lineto
459 320 lineto
460 320 lineto
460 321 lineto
461 321 lineto
462 321 lineto
462 322 lineto
463 322 lineto
464 322 lineto
464 323 lineto
465 323 lineto
466 323 lineto
467 324 lineto
468 324 lineto
469 324 lineto
469 325 lineto
470 325 lineto
471 325 lineto
471 326 lineto
472 326 lineto
473 326 lineto
473 327 lineto
474 327 lineto
475 327 lineto
475 328 lineto
476 328 lineto
477 328 lineto
477 329 lineto
478 329 lineto
479 329 lineto
479 330 lineto
480 330 lineto
481 330 lineto
481 331 lineto
482 331 lineto
483 331 lineto
483 332 lineto
484 332 lineto
485 332 lineto
485 333 lineto
486 333 lineto
487 333 lineto
487 334 lineto
488 334 lineto
489 334 lineto
490 335 lineto
491 335 lineto
492 336 lineto
493 336 lineto
494 336 lineto
494 337 lineto
495 337 lineto
496 337 lineto
496 338 lineto
497 338 lineto
498 338 lineto
498 339 lineto
499 339 lineto
500 339 lineto
501 340 lineto
502 340 lineto
503 340 lineto
503 341 lineto
504 341 lineto
505 341 lineto
505 342 lineto
506 342 lineto
507 342 lineto
507 343 lineto
508 343 lineto
509 343 lineto
510 343 lineto
510 344 lineto
511 344 lineto
512 344 lineto
512 345 lineto
513 345 lineto
514 345 lineto
515 345 lineto
515 346 lineto
516 346 lineto
517 346 lineto
517 347 lineto
518 347 lineto
519 347 lineto
520 347 lineto
520 348 lineto
521 348 lineto
522 348 lineto
523 348 lineto
523 349 lineto
524 349 lineto
525 349 lineto
525 350 lineto
526 350 lineto
527 350 lineto
528 350 lineto
528 351 lineto
529 351 lineto
530 351 lineto
531 351 lineto
532 352 lineto
533 352 lineto
534 352 lineto
535 353 lineto
536 353 lineto
537 353 lineto
538 353 lineto
538 354 lineto
539 354 lineto
540 354 lineto
541 354 lineto
541 355 lineto
542 355 lineto
543 355 lineto
544 355 lineto
545 355 lineto
545 356 lineto
546 356 lineto
547 356 lineto
548 356 lineto
549 356 lineto
550 357 lineto
551 357 lineto
552 357 lineto
553 357 lineto
554 357 lineto
554 358 lineto
555 358 lineto
556 358 lineto
557 358 lineto
558 358 lineto
559 358 lineto
560 358 lineto
560 359 lineto
561 359 lineto
562 359 lineto
563 359 lineto
564 359 lineto
565 359 lineto
566 359 lineto
567 359 lineto
567 360 lineto
568 360 lineto
569 360 lineto
570 360 lineto
571 360 lineto
572 360 lineto
573 360 lineto
stroke
[3 3] 0 setdash
newpath
78 586 moveto
102 586 lineto
stroke
[] 0 setdash
108 582 moveto
(.V(1)) show
[3 3] 0 setdash
newpath
123 327 moveto
124 328 lineto
124 329 lineto
124 330 lineto
125 331 lineto
125 332 lineto
125 333 lineto
126 334 lineto
126 335 lineto
126 336 lineto
127 337 lineto
127 338 lineto
127 339 lineto
127 340 lineto
128 340 lineto
128 341 lineto
128 342 lineto
128 343 lineto
129 343 lineto
129 344 lineto
129 345 lineto
129 346 lineto
130 347 lineto
130 348 lineto
130 349 lineto
131 349 lineto
131 350 lineto
131 351 lineto
131 352 lineto
132 353 lineto
132 354 lineto
132 355 lineto
133 356 lineto
133 357 lineto
133 358 lineto
134 358 lineto
134 359 lineto
134 360 lineto
134 361 lineto
135 362 lineto
135 363 lineto
135 364 lineto
136 365 lineto
136 366 lineto
136 367 lineto
137 368 lineto
137 369 lineto
137 370 lineto
138 371 lineto
138 372 lineto
138 373 lineto
138 374 lineto
139 374 lineto
139 375 lineto
139 376 lineto
140 377 lineto
140 378 lineto
140 379 lineto
140 380 lineto
141 380 lineto
141 381 lineto
141 382 lineto
142 383 lineto
142 384 lineto
142 385 lineto
143 386 lineto
143 387 lineto
143 388 lineto
144 389 lineto
144 390 lineto
144 391 lineto
145 392 lineto
145 393 lineto
145 394 lineto
146 395 lineto
146 396 lineto
146 397 lineto
147 398 lineto
147 399 lineto
147 400 lineto
148 401 lineto
148 402 lineto
148 403 lineto
149 404 lineto
149 405 lineto
149 406 lineto
150 407 lineto
150 408 lineto
150 409 lineto
151 409 lineto
151 410 lineto
151 411 lineto
152 412 lineto
152 413 lineto
152 414 lineto
152 415 lineto
153 415 lineto
153 416 lineto
153 417 lineto
154 418 lineto
154 419 lineto
154 420 lineto
155 421 lineto
155 422 lineto
155 423 lineto
156 423 lineto
156 424 lineto
156 425 lineto
156 426 lineto
157 427 lineto
157 428 lineto
158 429 lineto
158 430 lineto
158 431 lineto
158 432 lineto
159 432 lineto
159 433 lineto
159 434 lineto
160 435 lineto
160 436 lineto
161 437 lineto
161 438 lineto
161 439 lineto
162 440 lineto
162 441 lineto
162 442 lineto
163 442 lineto
163 443 lineto
163 444 lineto
163 445 lineto
164 445 lineto
164 446 lineto
164 447 lineto
165 448 lineto
165 449 lineto
165 450 lineto
166 451 lineto
166 452 lineto
167 453 lineto
167 454 lineto
167 455 lineto
168 456 lineto
168 457 lineto
169 458 lineto
169 459 lineto
169 460 lineto
170 460 lineto
170 461 lineto
170 462 lineto
171 463 lineto
171 464 lineto
171 465 lineto
172 465 lineto
172 466 lineto
172 467 lineto
173 468 lineto
173 469 lineto
173 470 lineto
174 470 lineto
174 471 lineto
174 472 lineto
175 473 lineto
175 474 lineto
176 475 lineto
176 476 lineto
176 477 lineto
177 477 lineto
177 478 lineto
177 479 lineto
178 479 lineto
178 480 lineto
178 481 lineto
179 481 lineto
179 482 lineto
179 483 lineto
180 484 lineto
180 485 lineto
181 486 lineto
181 487 lineto
181 488 lineto
182 488 lineto
182 489 lineto
182 490 lineto
183 490 lineto
183 491 lineto
183 492 lineto
184 492 lineto
184 493 lineto
184 494 lineto
185 494 lineto
185 495 lineto
185 496 lineto
186 496 lineto
186 497 lineto
186 498 lineto
187 498 lineto
187 499 lineto
187 500 lineto
188 500 lineto
188 501 lineto
188 502 lineto
189 502 lineto
189 503 lineto
190 504 lineto
190 505 lineto
191 506 lineto
191 507 lineto
192 508 lineto
192 509 lineto
193 510 lineto
193 511 lineto
194 511 lineto
194 512 lineto
194 513 lineto
195 513 lineto
195 514 lineto
196 514 lineto
196 515 lineto
196 516 lineto
197 516 lineto
197 517 lineto
198 518 lineto
198 519 lineto
199 519 lineto
199 520 lineto
200 521 lineto
200 522 lineto
201 522 lineto
201 523 lineto
202 524 lineto
202 525 lineto
203 525 lineto
203 526 lineto
204 526 lineto
204 527 lineto
205 528 lineto
205 529 lineto
206 529 lineto
206 530 lineto
207 530 lineto
207 531 lineto
208 531 lineto
208 532 lineto
209 533 lineto
210 534 lineto
210 535 lineto
211 535 lineto
211 536 lineto
212 536 lineto
212 537 lineto
213 537 lineto
213 538 lineto
214 538 lineto
215 539 lineto
216 540 lineto
217 540 lineto
217 541 lineto
218 541 lineto
218 542 lineto
219 542 lineto
220 543 lineto
221 543 lineto
221 544 lineto
222 544 lineto
223 544 lineto
223 545 lineto
224 545 lineto
225 545 lineto
225 546 lineto
226 546 lineto
227 546 lineto
227 547 lineto
228 547 lineto
229 547 lineto
230 547 lineto
231 548 lineto
232 548 lineto
233 548 lineto
234 548 lineto
235 548 lineto
236 548 lineto
237 548 lineto
238 548 lineto
239 548 lineto
240 548 lineto
240 547 lineto
241 547 lineto
242 547 lineto
243 547 lineto
244 547 lineto
244 546 lineto
245 546 lineto
246 546 lineto
246 545 lineto
247 545 lineto
248 545 lineto
248 544 lineto
249 544 lineto
250 544 lineto
250 543 lineto
251 543 lineto
252 542 lineto
253 542 lineto
253 541 lineto
254 541 lineto
254 540 lineto
255 540 lineto
255 539 lineto
256 539 lineto
257 538 lineto
258 537 lineto
259 537 lineto
259 536 lineto
260 536 lineto
260 535 lineto
261 534 lineto
262 533 lineto
262 532 lineto
263 532 lineto
263 531 lineto
264 531 lineto
264 530 lineto
265 530 lineto
265 529 lineto
266 529 lineto
266 528 lineto
267 527 lineto
267 526 lineto
268 526 lineto
268 525 lineto
269 525 lineto
269 524 lineto
270 523 lineto
270 522 lineto
271 522 lineto
271 521 lineto
272 520 lineto
272 519 lineto
273 519 lineto
273 518 lineto
274 517 lineto
274 516 lineto
275 516 lineto
275 515 lineto
275 514 lineto
276 514 lineto
276 513 lineto
277 512 lineto
277 511 lineto
278 511 lineto
278 510 lineto
278 509 lineto
279 509 lineto
279 508 lineto
280 507 lineto
280 506 lineto
281 505 lineto
281 504 lineto
282 504 lineto
282 503 lineto
282 502 lineto
283 502 lineto
283 501 lineto
283 500 lineto
284 500 lineto
284 499 lineto
284 498 lineto
285 498 lineto
285 497 lineto
285 496 lineto
286 496 lineto
286 495 lineto
286 494 lineto
287 494 lineto
287 493 lineto
287 492 lineto
288 492 lineto
288 491 lineto
288 490 lineto
289 490 lineto
289 489 lineto
289 488 lineto
290 487 lineto
290 486 lineto
291 486 lineto
291 485 lineto
291 484 lineto
292 483 lineto
292 482 lineto
293 481 lineto
293 480 lineto
293 479 lineto
294 479 lineto
294 478 lineto
294 477 lineto
295 477 lineto
295 476 lineto
295 475 lineto
296 475 lineto
296 474 lineto
296 473 lineto
296 472 lineto
297 472 lineto
297 471 lineto
297 470 lineto
298 470 lineto
298 469 lineto
298 468 lineto
299 467 lineto
299 466 lineto
299 465 lineto
300 465 lineto
300 464 lineto
300 463 lineto
301 462 lineto
301 461 lineto
302 460 lineto
302 459 lineto
302 458 lineto
303 457 lineto
303 456 lineto
304 455 lineto
304 454 lineto
304 453 lineto
305 453 lineto
305 452 lineto
305 451 lineto
305 450 lineto
306 450 lineto
306 449 lineto
306 448 lineto
307 447 lineto
307 446 lineto
307 445 lineto
308 445 lineto
308 444 lineto
308 443 lineto
309 442 lineto
309 441 lineto
309 440 lineto
310 439 lineto
310 438 lineto
310 437 lineto
311 437 lineto
311 436 lineto
311 435 lineto
311 434 lineto
312 434 lineto
312 433 lineto
312 432 lineto
313 431 lineto
313 430 lineto
313 429 lineto
314 429 lineto
314 428 lineto
314 427 lineto
314 426 lineto
315 426 lineto
315 425 lineto
315 424 lineto
316 423 lineto
316 422 lineto
316 421 lineto
317 420 lineto
317 419 lineto
317 418 lineto
318 418 lineto
318 417 lineto
318 416 lineto
318 415 lineto
319 414 lineto
319 413 lineto
319 412 lineto
320 412 lineto
320 411 lineto
320 410 lineto
320 409 lineto
321 409 lineto
321 408 lineto
321 407 lineto
322 406 lineto
322 405 lineto
322 404 lineto
323 403 lineto
323 402 lineto
323 401 lineto
324 400 lineto
324 399 lineto
324 398 lineto
325 397 lineto
325 396 lineto
325 395 lineto
326 394 lineto
326 393 lineto
326 392 lineto
327 391 lineto
327 390 lineto
327 389 lineto
328 388 lineto
328 387 lineto
328 386 lineto
329 385 lineto
329 384 lineto
329 383 lineto
330 382 lineto
330 381 lineto
330 380 lineto
331 379 lineto
331 378 lineto
331 377 lineto
332 377 lineto
332 376 lineto
332 375 lineto
332 374 lineto
333 373 lineto
333 372 lineto
333 371 lineto
334 371 lineto
334 370 lineto
334 369 lineto
334 368 lineto
335 367 lineto
335 366 lineto
335 365 lineto
336 364 lineto
336 363 lineto
336 362 lineto
337 361 lineto
337 360 lineto
337 359 lineto
338 358 lineto
338 357 lineto
338 356 lineto
338 355 lineto
339 355 lineto
339 354 lineto
339 353 lineto
340 352 lineto
340 351 lineto
340 350 lineto
341 349 lineto
341 348 lineto
341 347 lineto
341 346 lineto
342 346 lineto
342 345 lineto
342 344 lineto
343 343 lineto
343 342 lineto
343 341 lineto
343 340 lineto
344 339 lineto
344 338 lineto
344 337 lineto
345 337 lineto
345 336 lineto
345 335 lineto
345 334 lineto
346 333 lineto
346 332 lineto
346 331 lineto
347 330 lineto
347 329 lineto
347 328 lineto
348 327 lineto
348 326 lineto
348 325 lineto
349 324 lineto
349 323 lineto
349 322 lineto
350 321 lineto
350 320 lineto
350 319 lineto
351 318 lineto
351 317 lineto
351 316 lineto
352 315 lineto
352 314 lineto
352 313 lineto
352 312 lineto
353 312 lineto
353 311 lineto
353 310 lineto
353 309 lineto
354 309 lineto
354 308 lineto
354 307 lineto
354 306 lineto
355 305 lineto
355 304 lineto
355 303 lineto
356 303 lineto
356 302 lineto
356 301 lineto
356 300 lineto
357 299 lineto
357 298 lineto
357 297 lineto
358 296 lineto
358 295 lineto
358 294 lineto
359 294 lineto
359 293 lineto
359 292 lineto
359 291 lineto
360 290 lineto
360 289 lineto
360 288 lineto
361 287 lineto
361 286 lineto
361 285 lineto
362 284 lineto
362 283 lineto
362 282 lineto
363 281 lineto
363 280 lineto
363 279 lineto
363 278 lineto
364 278 lineto
364 277 lineto
364 276 lineto
365 275 lineto
365 274 lineto
365 273 lineto
365 272 lineto
366 272 lineto
366 271 lineto
366 270 lineto
367 269 lineto
367 268 lineto
367 267 lineto
368 266 lineto
368 265 lineto
368 264 lineto
369 263 lineto
369 262 lineto
369 261 lineto
370 260 lineto
370 259 lineto
370 258 lineto
371 257 lineto
371 256 lineto
371 255 lineto
372 254 lineto
372 253 lineto
372 252 lineto
373 251 lineto
373 250 lineto
373 249 lineto
374 248 lineto
374 247 lineto
374 246 lineto
375 245 lineto
375 244 lineto
375 243 lineto
376 243 lineto
376 242 lineto
376 241 lineto
377 240 lineto
377 239 lineto
377 238 lineto
377 237 lineto
378 237 lineto
378 236 lineto
378 235 lineto
379 234 lineto
379 233 lineto
379 232 lineto
380 231 lineto
380 230 lineto
380 229 lineto
381 229 lineto
381 228 lineto
381 227 lineto
381 226 lineto
382 225 lineto
382 224 lineto
383 223 lineto
383 222 lineto
383 221 lineto
383 220 lineto
384 220 lineto
384 219 lineto
384 218 lineto
385 217 lineto
385 216 lineto
386 215 lineto
386 214 lineto
386 213 lineto
387 212 lineto
387 211 lineto
387 210 lineto
388 210 lineto
388 209 lineto
388 208 lineto
388 207 lineto
389 207 lineto
389 206 lineto
389 205 lineto
390 204 lineto
390 203 lineto
390 202 lineto
391 201 lineto
391 200 lineto
392 199 lineto
392 198 lineto
392 197 lineto
393 196 lineto
393 195 lineto
394 194 lineto
394 193 lineto
394 192 lineto
395 192 lineto
395 191 lineto
395 190 lineto
396 189 lineto
396 188 lineto
396 187 lineto
397 187 lineto
397 186 lineto
397 185 lineto
398 184 lineto
398 183 lineto
398 182 lineto
399 182 lineto
399 181 lineto
399 180 lineto
400 179 lineto
400 178 lineto
401 177 lineto
401 176 lineto
401 175 lineto
402 175 lineto
402 174 lineto
402 173 lineto
403 173 lineto
403 172 lineto
403 171 lineto
404 171 lineto
404 170 lineto
404 169 lineto
405 168 lineto
405 167 lineto
406 166 lineto
406 165 lineto
406 164 lineto
407 164 lineto
407 163 lineto
407 162 lineto
408 162 lineto
408 161 lineto
408 160 lineto
409 160 lineto
409 159 lineto
409 158 lineto
410 158 lineto
410 157 lineto
410 156 lineto
411 156 lineto
411 155 lineto
411 154 lineto
412 154 lineto
412 153 lineto
412 152 lineto
413 152 lineto
413 151 lineto
413 150 lineto
414 150 lineto
414 149 lineto
415 148 lineto
415 147 lineto
416 146 lineto
416 145 lineto
417 144 lineto
417 143 lineto
418 142 lineto
418 141 lineto
419 141 lineto
419 140 lineto
419 139 lineto
420 139 lineto
420 138 lineto
421 138 lineto
421 137 lineto
421 136 lineto
422 136 lineto
422 135 lineto
423 134 lineto
423 133 lineto
424 133 lineto
424 132 lineto
425 131 lineto
425 130 lineto
426 130 lineto
426 129 lineto
427 128 lineto
427 127 lineto
428 127 lineto
428 126 lineto
429 126 lineto
429 125 lineto
430 124 lineto
430 123 lineto
431 123 lineto
431 122 lineto
432 122 lineto
432 121 lineto
433 121 lineto
433 120 lineto
434 119 lineto
435 118 lineto
435 117 lineto
436 117 lineto
436 116 lineto
437 116 lineto
437 115 lineto
438 115 lineto
438 114 lineto
439 114 lineto
440 113 lineto
441 112 lineto
442 112 lineto
442 111 lineto
443 111 lineto
443 110 lineto
444 110 lineto
445 109 lineto
446 109 lineto
446 108 lineto
447 108 lineto
448 108 lineto
448 107 lineto
449 107 lineto
450 107 lineto
450 106 lineto
451 106 lineto
452 106 lineto
452 105 lineto
453 105 lineto
454 105 lineto
455 105 lineto
456 104 lineto
457 104 lineto
458 104 lineto
459 104 lineto
460 104 lineto
461 104 lineto
462 104 lineto
463 104 lineto
464 104 lineto
465 104 lineto
465 105 lineto
466 105 lineto
467 105 lineto
468 105 lineto
469 105 lineto
469 106 lineto
470 106 lineto
471 106 lineto
471 107 lineto
472 107 lineto
473 107 lineto
473 108 lineto
474 108 lineto
475 108 lineto
475 109 lineto
476 109 lineto
477 110 lineto
478 110 lineto
478 111 lineto
479 111 lineto
479 112 lineto
480 112 lineto
480 113 lineto
481 113 lineto
482 114 lineto
483 115 lineto
484 115 lineto
484 116 lineto
485 116 lineto
485 117 lineto
486 118 lineto
487 119 lineto
487 120 lineto
488 120 lineto
488 121 lineto
489 121 lineto
489 122 lineto
490 122 lineto
490 123 lineto
491 123 lineto
491 124 lineto
492 125 lineto
492 126 lineto
493 126 lineto
493 127 lineto
494 127 lineto
494 128 lineto
495 129 lineto
495 130 lineto
496 130 lineto
496 131 lineto
497 132 lineto
497 133 lineto
498 133 lineto
498 134 lineto
499 135 lineto
499 136 lineto
500 136 lineto
500 137 lineto
500 138 lineto
501 138 lineto
501 139 lineto
502 140 lineto
502 141 lineto
503 141 lineto
503 142 lineto
503 143 lineto
504 143 lineto
504 144 lineto
505 145 lineto
505 146 lineto
506 147 lineto
506 148 lineto
507 148 lineto
507 149 lineto
507 150 lineto
508 150 lineto
508 151 lineto
508 152 lineto
509 152 lineto
509 153 lineto
509 154 lineto
510 154 lineto
510 155 lineto
510 156 lineto
511 156 lineto
511 157 lineto
511 158 lineto
512 158 lineto
512 159 lineto
512 160 lineto
513 160 lineto
513 161 lineto
513 162 lineto
514 162 lineto
514 163 lineto
514 164 lineto
515 165 lineto
515 166 lineto
516 166 lineto
516 167 lineto
516 168 lineto
517 169 lineto
517 170 lineto
518 171 lineto
518 172 lineto
518 173 lineto
519 173 lineto
519 174 lineto
519 175 lineto
520 175 lineto
520 176 lineto
520 177 lineto
521 177 lineto
521 178 lineto
521 179 lineto
521 180 lineto
522 180 lineto
522 181 lineto
522 182 lineto
523 182 lineto
523 183 lineto
523 184 lineto
524 185 lineto
524 186 lineto
524 187 lineto
525 187 lineto
525 188 lineto
525 189 lineto
526 190 lineto
526 191 lineto
527 192 lineto
527 193 lineto
527 194 lineto
528 195 lineto
528 196 lineto
529 197 lineto
529 198 lineto
529 199 lineto
530 199 lineto
530 200 lineto
530 201 lineto
530 202 lineto
531 202 lineto
531 203 lineto
531 204 lineto
532 205 lineto
532 206 lineto
532 207 lineto
533 207 lineto
stroke
newpath
533 207 moveto
533 208 lineto
533 209 lineto
534 210 lineto
534 211 lineto
534 212 lineto
535 213 lineto
535 214 lineto
535 215 lineto
536 215 lineto
536 216 lineto
536 217 lineto
536 218 lineto
537 218 lineto
537 219 lineto
537 220 lineto
538 221 lineto
538 222 lineto
538 223 lineto
539 223 lineto
539 224 lineto
539 225 lineto
539 226 lineto
540 226 lineto
540 227 lineto
540 228 lineto
541 229 lineto
541 230 lineto
541 231 lineto
542 232 lineto
542 233 lineto
542 234 lineto
543 234 lineto
543 235 lineto
543 236 lineto
543 237 lineto
544 238 lineto
544 239 lineto
544 240 lineto
545 240 lineto
545 241 lineto
545 242 lineto
545 243 lineto
546 243 lineto
546 244 lineto
546 245 lineto
547 246 lineto
547 247 lineto
547 248 lineto
548 249 lineto
548 250 lineto
548 251 lineto
549 252 lineto
549 253 lineto
549 254 lineto
550 255 lineto
550 256 lineto
550 257 lineto
551 258 lineto
551 259 lineto
551 260 lineto
552 261 lineto
552 262 lineto
552 263 lineto
553 264 lineto
553 265 lineto
553 266 lineto
554 267 lineto
554 268 lineto
554 269 lineto
555 270 lineto
555 271 lineto
555 272 lineto
556 273 lineto
556 274 lineto
556 275 lineto
557 275 lineto
557 276 lineto
557 277 lineto
557 278 lineto
558 279 lineto
558 280 lineto
558 281 lineto
559 281 lineto
559 282 lineto
559 283 lineto
559 284 lineto
560 285 lineto
560 286 lineto
560 287 lineto
561 288 lineto
561 289 lineto
561 290 lineto
562 291 lineto
562 292 lineto
562 293 lineto
563 294 lineto
563 295 lineto
563 296 lineto
563 297 lineto
564 297 lineto
564 298 lineto
564 299 lineto
565 300 lineto
565 301 lineto
565 302 lineto
566 303 lineto
566 304 lineto
566 305 lineto
566 306 lineto
567 306 lineto
567 307 lineto
567 308 lineto
568 309 lineto
568 310 lineto
568 311 lineto
568 312 lineto
569 313 lineto
569 314 lineto
569 315 lineto
570 315 lineto
570 316 lineto
570 317 lineto
570 318 lineto
571 319 lineto
571 320 lineto
571 321 lineto
572 322 lineto
572 323 lineto
572 324 lineto
573 325 lineto
573 326 lineto
stroke
showpage
%%EOF
