%!PS-Adobe-3.0 EPSF-3.0
%%Creator: nutmeg
%%BoundingBox: 54 54 612 612
1 1 scale
/Helvetica findfont 10 scalefont setfont

[1 2] 0 setdash
[] 0 setdash
243 66 moveto
(t[ms]) show
[1 2] 0 setdash
[] 0 setdash
54 331 moveto
(i[A],Vs[V]) show
[1 2] 0 setdash
newpath
78 104 moveto
78 548 lineto
stroke
[] 0 setdash
66 87 moveto
(18.0) show
[1 2] 0 setdash
newpath
123 104 moveto
123 548 lineto
stroke
[] 0 setdash
111 87 moveto
(20.0) show
[1 2] 0 setdash
newpath
168 104 moveto
168 548 lineto
stroke
[] 0 setdash
156 87 moveto
(22.0) show
[1 2] 0 setdash
newpath
213 104 moveto
213 548 lineto
stroke
[] 0 setdash
201 87 moveto
(24.0) show
[1 2] 0 setdash
newpath
258 104 moveto
258 548 lineto
stroke
[] 0 setdash
246 87 moveto
(26.0) show
[1 2] 0 setdash
newpath
303 104 moveto
303 548 lineto
stroke
[] 0 setdash
291 87 moveto
(28.0) show
[1 2] 0 setdash
newpath
348 104 moveto
348 548 lineto
stroke
[] 0 setdash
336 87 moveto
(30.0) show
[1 2] 0 setdash
newpath
393 104 moveto
393 548 lineto
stroke
[] 0 setdash
381 87 moveto
(32.0) show
[1 2] 0 setdash
newpath
438 104 moveto
438 548 lineto
stroke
[] 0 setdash
426 87 moveto
(34.0) show
[1 2] 0 setdash
newpath
483 104 moveto
483 548 lineto
stroke
[] 0 setdash
471 87 moveto
(36.0) show
[1 2] 0 setdash
newpath
528 104 moveto
528 548 lineto
stroke
[] 0 setdash
516 87 moveto
(38.0) show
[1 2] 0 setdash
newpath
573 104 moveto
573 548 lineto
stroke
[] 0 setdash
561 87 moveto
(40.0) show
[1 2] 0 setdash
[] 0 setdash
382 66 moveto
(ms) show
[1 2] 0 setdash
newpath
78 104 moveto
573 104 lineto
stroke
[] 0 setdash
54 101 moveto
(-1.0) show
[1 2] 0 setdash
newpath
78 215 moveto
573 215 lineto
stroke
[] 0 setdash
54 212 moveto
(-0.5) show
[1 2] 0 setdash
[] 0 setdash
newpath
78 326 moveto
573 326 lineto
stroke
[1 2] 0 setdash
[] 0 setdash
60 323 moveto
(0.0) show
[1 2] 0 setdash
newpath
78 437 moveto
573 437 lineto
stroke
[] 0 setdash
60 434 moveto
(0.5) show
[1 2] 0 setdash
newpath
78 548 moveto
573 548 lineto
stroke
[] 0 setdash
60 545 moveto
(1.0) show
[1 2] 0 setdash
[] 0 setdash
54 582 moveto
(Units) show
[1 2] 0 setdash
[7 7] 0 setdash
newpath
295 586 moveto
319 586 lineto
stroke
[] 0 setdash
325 582 moveto
(i(Vi)) show
[7 7] 0 setdash
newpath
123 304 moveto
124 304 lineto
125 304 lineto
126 304 lineto
127 304 lineto
128 305 lineto
129 305 lineto
130 305 lineto
131 305 lineto
132 305 lineto
133 305 lineto
134 305 lineto
135 305 lineto
136 305 lineto
137 306 lineto
138 306 lineto
139 306 lineto
140 306 lineto
141 306 lineto
142 306 lineto
143 306 lineto
143 307 lineto
144 307 lineto
145 307 lineto
146 307 lineto
147 307 lineto
148 307 lineto
148 308 lineto
149 308 lineto
150 308 lineto
151 308 lineto
152 308 lineto
153 309 lineto
154 309 lineto
155 309 lineto
156 309 lineto
157 310 lineto
158 310 lineto
159 310 lineto
160 310 lineto
160 311 lineto
161 311 lineto
162 311 lineto
163 311 lineto
164 311 lineto
164 312 lineto
165 312 lineto
166 312 lineto
167 312 lineto
167 313 lineto
168 313 lineto
169 313 lineto
170 313 lineto
170 314 lineto
171 314 lineto
172 314 lineto
173 314 lineto
173 315 lineto
174 315 lineto
175 315 lineto
176 315 lineto
176 316 lineto
177 316 lineto
178 316 lineto
179 316 lineto
179 317 lineto
180 317 lineto
181 317 lineto
181 318 lineto
182 318 lineto
183 318 lineto
184 318 lineto
184 319 lineto
185 319 lineto
186 319 lineto
187 320 lineto
188 320 lineto
189 320 lineto
189 321 lineto
190 321 lineto
191 321 lineto
192 322 lineto
193 322 lineto
194 322 lineto
194 323 lineto
195 323 lineto
196 323 lineto
196 324 lineto
197 324 lineto
198 324 lineto
199 324 lineto
199 325 lineto
200 325 lineto
201 325 lineto
201 326 lineto
202 326 lineto
203 326 lineto
203 327 lineto
204 327 lineto
205 327 lineto
206 328 lineto
207 328 lineto
208 328 lineto
208 329 lineto
209 329 lineto
210 329 lineto
210 330 lineto
211 330 lineto
212 330 lineto
212 331 lineto
213 331 lineto
214 331 lineto
214 332 lineto
215 332 lineto
216 332 lineto
217 333 lineto
218 333 lineto
219 334 lineto
220 334 lineto
221 334 lineto
221 335 lineto
222 335 lineto
223 335 lineto
223 336 lineto
224 336 lineto
225 336 lineto
225 337 lineto
226 337 lineto
227 337 lineto
227 338 lineto
228 338 lineto
229 338 lineto
229 339 lineto
230 339 lineto
231 339 lineto
232 340 lineto
233 340 lineto
234 341 lineto
235 341 lineto
236 341 lineto
236 342 lineto
237 342 lineto
238 342 lineto
238 343 lineto
239 343 lineto
240 343 lineto
240 344 lineto
241 344 lineto
242 344 lineto
242 345 lineto
243 345 lineto
244 345 lineto
245 346 lineto
246 346 lineto
247 346 lineto
247 347 lineto
248 347 lineto
249 347 lineto
249 348 lineto
250 348 lineto
251 348 lineto
252 349 lineto
253 349 lineto
254 349 lineto
254 350 lineto
255 350 lineto
256 350 lineto
256 351 lineto
257 351 lineto
258 351 lineto
259 352 lineto
260 352 lineto
261 352 lineto
261 353 lineto
262 353 lineto
263 353 lineto
264 354 lineto
265 354 lineto
266 354 lineto
266 355 lineto
267 355 lineto
268 355 lineto
269 355 lineto
269 356 lineto
270 356 lineto
271 356 lineto
272 357 lineto
273 357 lineto
274 357 lineto
274 358 lineto
275 358 lineto
276 358 lineto
277 358 lineto
277 359 lineto
278 359 lineto
279 359 lineto
280 359 lineto
280 360 lineto
281 360 lineto
282 360 lineto
283 360 lineto
283 361 lineto
284 361 lineto
285 361 lineto
286 361 lineto
287 361 lineto
287 362 lineto
288 362 lineto
289 362 lineto
290 362 lineto
290 363 lineto
291 363 lineto
292 363 lineto
293 363 lineto
294 363 lineto
294 364 lineto
295 364 lineto
296 364 lineto
297 364 lineto
298 364 lineto
298 365 lineto
299 365 lineto
300 365 lineto
301 365 lineto
302 365 lineto
303 366 lineto
304 366 lineto
305 366 lineto
306 366 lineto
307 366 lineto
308 366 lineto
308 367 lineto
309 367 lineto
310 367 lineto
311 367 lineto
312 367 lineto
313 367 lineto
314 367 lineto
314 368 lineto
315 368 lineto
316 368 lineto
317 368 lineto
318 368 lineto
319 368 lineto
320 368 lineto
321 368 lineto
322 368 lineto
323 368 lineto
324 368 lineto
325 368 lineto
325 369 lineto
326 369 lineto
327 369 lineto
328 369 lineto
329 369 lineto
330 369 lineto
331 369 lineto
332 369 lineto
333 369 lineto
334 369 lineto
335 369 lineto
336 369 lineto
337 369 lineto
338 369 lineto
339 369 lineto
340 369 lineto
341 369 lineto
342 369 lineto
343 369 lineto
344 368 lineto
345 368 lineto
346 368 lineto
347 368 lineto
348 368 lineto
349 368 lineto
350 368 lineto
351 368 lineto
352 368 lineto
353 368 lineto
354 368 lineto
354 367 lineto
355 367 lineto
356 367 lineto
357 367 lineto
358 367 lineto
359 367 lineto
360 367 lineto
360 366 lineto
361 366 lineto
362 366 lineto
363 366 lineto
364 366 lineto
365 366 lineto
366 365 lineto
367 365 lineto
368 365 lineto
369 365 lineto
370 365 lineto
370 364 lineto
371 364 lineto
372 364 lineto
373 364 lineto
374 364 lineto
374 363 lineto
375 363 lineto
376 363 lineto
377 363 lineto
378 363 lineto
378 362 lineto
379 362 lineto
380 362 lineto
381 362 lineto
381 361 lineto
382 361 lineto
383 361 lineto
384 361 lineto
385 360 lineto
386 360 lineto
387 360 lineto
388 360 lineto
388 359 lineto
389 359 lineto
390 359 lineto
391 358 lineto
392 358 lineto
393 358 lineto
393 357 lineto
394 357 lineto
395 357 lineto
396 357 lineto
396 356 lineto
397 356 lineto
398 356 lineto
399 356 lineto
399 355 lineto
400 355 lineto
401 355 lineto
401 354 lineto
402 354 lineto
403 354 lineto
404 354 lineto
404 353 lineto
405 353 lineto
406 353 lineto
406 352 lineto
407 352 lineto
408 352 lineto
409 351 lineto
410 351 lineto
411 351 lineto
411 350 lineto
412 350 lineto
413 350 lineto
413 349 lineto
414 349 lineto
415 349 lineto
415 348 lineto
416 348 lineto
417 348 lineto
418 347 lineto
419 347 lineto
420 347 lineto
420 346 lineto
421 346 lineto
422 346 lineto
422 345 lineto
423 345 lineto
424 345 lineto
424 344 lineto
425 344 lineto
426 344 lineto
426 343 lineto
427 343 lineto
428 343 lineto
428 342 lineto
429 342 lineto
430 342 lineto
431 341 lineto
432 341 lineto
433 340 lineto
434 340 lineto
435 339 lineto
436 339 lineto
437 338 lineto
438 338 lineto
439 337 lineto
440 337 lineto
441 336 lineto
442 336 lineto
443 335 lineto
444 335 lineto
445 334 lineto
446 334 lineto
446 333 lineto
447 333 lineto
448 333 lineto
449 332 lineto
450 332 lineto
451 331 lineto
452 331 lineto
453 330 lineto
454 330 lineto
455 329 lineto
456 329 lineto
457 328 lineto
458 328 lineto
459 327 lineto
460 327 lineto
461 326 lineto
462 326 lineto
463 325 lineto
464 325 lineto
465 324 lineto
466 324 lineto
467 324 lineto
467 323 lineto
468 323 lineto
469 323 lineto
469 322 lineto
470 322 lineto
471 322 lineto
471 321 lineto
472 321 lineto
473 321 lineto
473 320 lineto
474 320 lineto
475 320 lineto
475 319 lineto
476 319 lineto
477 319 lineto
477 318 lineto
478 318 lineto
479 318 lineto
479 317 lineto
480 317 lineto
481 317 lineto
482 316 lineto
483 316 lineto
484 316 lineto
484 315 lineto
485 315 lineto
486 315 lineto
486 314 lineto
487 314 lineto
488 314 lineto
488 313 lineto
489 313 lineto
490 313 lineto
491 313 lineto
491 312 lineto
492 312 lineto
493 312 lineto
493 311 lineto
494 311 lineto
495 311 lineto
496 311 lineto
496 310 lineto
497 310 lineto
498 310 lineto
498 309 lineto
499 309 lineto
500 309 lineto
501 308 lineto
502 308 lineto
503 308 lineto
503 307 lineto
504 307 lineto
505 307 lineto
506 307 lineto
506 306 lineto
507 306 lineto
508 306 lineto
509 306 lineto
509 305 lineto
510 305 lineto
511 305 lineto
512 305 lineto
512 304 lineto
513 304 lineto
514 304 lineto
515 304 lineto
515 303 lineto
516 303 lineto
517 303 lineto
518 303 lineto
519 302 lineto
520 302 lineto
521 302 lineto
522 302 lineto
522 301 lineto
523 301 lineto
524 301 lineto
525 301 lineto
526 301 lineto
526 300 lineto
527 300 lineto
528 300 lineto
529 300 lineto
530 300 lineto
531 299 lineto
532 299 lineto
533 299 lineto
534 299 lineto
535 299 lineto
536 298 lineto
537 298 lineto
538 298 lineto
539 298 lineto
540 298 lineto
541 298 lineto
541 297 lineto
542 297 lineto
543 297 lineto
544 297 lineto
545 297 lineto
546 297 lineto
547 297 lineto
548 297 lineto
549 297 lineto
550 297 lineto
550 296 lineto
551 296 lineto
552 296 lineto
553 296 lineto
554 296 lineto
555 296 lineto
556 296 lineto
557 296 lineto
558 296 lineto
559 296 lineto
560 296 lineto
561 296 lineto
562 296 lineto
563 296 lineto
564 296 lineto
565 296 lineto
566 296 lineto
567 296 lineto
568 296 lineto
569 296 lineto
570 296 lineto
571 296 lineto
572 296 lineto
573 296 lineto
stroke
[3 3] 0 setdash
newpath
78 586 moveto
102 586 lineto
stroke
[] 0 setdash
108 582 moveto
(.V(1)) show
[3 3] 0 setdash
newpath
123 327 moveto
124 328 lineto
124 329 lineto
124 330 lineto
125 331 lineto
125 332 lineto
125 333 lineto
126 334 lineto
126 335 lineto
126 336 lineto
127 337 lineto
127 338 lineto
127 339 lineto
127 340 lineto
128 340 lineto
128 341 lineto
128 342 lineto
128 343 lineto
129 343 lineto
129 344 lineto
129 345 lineto
129 346 lineto
130 347 lineto
130 348 lineto
130 349 lineto
131 349 lineto
131 350 lineto
131 351 lineto
131 352 lineto
132 353 lineto
132 354 lineto
132 355 lineto
133 356 lineto
133 357 lineto
133 358 lineto
134 358 lineto
134 359 lineto
134 360 lineto
134 361 lineto
135 362 lineto
135 363 lineto
135 364 lineto
136 365 lineto
136 366 lineto
136 367 lineto
137 368 lineto
137 369 lineto
137 370 lineto
138 371 lineto
138 372 lineto
138 373 lineto
138 374 lineto
139 374 lineto
139 375 lineto
139 376 lineto
140 377 lineto
140 378 lineto
140 379 lineto
140 380 lineto
141 380 lineto
141 381 lineto
141 382 lineto
142 383 lineto
142 384 lineto
142 385 lineto
143 386 lineto
143 387 lineto
143 388 lineto
144 389 lineto
144 390 lineto
144 391 lineto
145 392 lineto
145 393 lineto
145 394 lineto
146 395 lineto
146 396 lineto
146 397 lineto
147 398 lineto
147 399 lineto
147 400 lineto
148 401 lineto
148 402 lineto
148 403 lineto
149 404 lineto
149 405 lineto
149 406 lineto
150 407 lineto
150 408 lineto
150 409 lineto
151 409 lineto
151 410 lineto
151 411 lineto
152 412 lineto
152 413 lineto
152 414 lineto
152 415 lineto
153 415 lineto
153 416 lineto
153 417 lineto
154 418 lineto
154 419 lineto
154 420 lineto
155 421 lineto
155 422 lineto
155 423 lineto
156 423 lineto
156 424 lineto
156 425 lineto
156 426 lineto
157 427 lineto
157 428 lineto
158 429 lineto
158 430 lineto
158 431 lineto
158 432 lineto
159 432 lineto
159 433 lineto
159 434 lineto
160 435 lineto
160 436 lineto
161 437 lineto
161 438 lineto
161 439 lineto
162 440 lineto
162 441 lineto
162 442 lineto
163 442 lineto
163 443 lineto
163 444 lineto
163 445 lineto
164 445 lineto
164 446 lineto
164 447 lineto
165 448 lineto
165 449 lineto
165 450 lineto
166 451 lineto
166 452 lineto
167 453 lineto
167 454 lineto
167 455 lineto
168 456 lineto
168 457 lineto
169 458 lineto
169 459 lineto
169 460 lineto
170 460 lineto
170 461 lineto
170 462 lineto
171 463 lineto
171 464 lineto
171 465 lineto
172 465 lineto
172 466 lineto
172 467 lineto
173 468 lineto
173 469 lineto
173 470 lineto
174 470 lineto
174 471 lineto
174 472 lineto
175 473 lineto
175 474 lineto
176 475 lineto
176 476 lineto
176 477 lineto
177 477 lineto
177 478 lineto
177 479 lineto
178 479 lineto
178 480 lineto
178 481 lineto
179 481 lineto
179 482 lineto
179 483 lineto
180 484 lineto
180 485 lineto
181 486 lineto
181 487 lineto
181 488 lineto
182 488 lineto
182 489 lineto
182 490 lineto
183 490 lineto
183 491 lineto
183 492 lineto
184 492 lineto
184 493 lineto
184 494 lineto
185 494 lineto
185 495 lineto
185 496 lineto
186 496 lineto
186 497 lineto
186 498 lineto
187 498 lineto
187 499 lineto
187 500 lineto
188 500 lineto
188 501 lineto
188 502 lineto
189 502 lineto
189 503 lineto
190 504 lineto
190 505 lineto
191 506 lineto
191 507 lineto
192 508 lineto
192 509 lineto
193 510 lineto
193 511 lineto
194 511 lineto
194 512 lineto
194 513 lineto
195 513 lineto
195 514 lineto
196 514 lineto
196 515 lineto
196 516 lineto
197 516 lineto
197 517 lineto
198 518 lineto
198 519 lineto
199 519 lineto
199 520 lineto
200 521 lineto
200 522 lineto
201 522 lineto
201 523 lineto
202 524 lineto
202 525 lineto
203 525 lineto
203 526 lineto
204 526 lineto
204 527 lineto
205 528 lineto
205 529 lineto
206 529 lineto
206 530 lineto
207 530 lineto
207 531 lineto
208 531 lineto
208 532 lineto
209 533 lineto
210 534 lineto
210 535 lineto
211 535 lineto
211 536 lineto
212 536 lineto
212 537 lineto
213 537 lineto
213 538 lineto
214 538 lineto
215 539 lineto
216 540 lineto
217 540 lineto
217 541 lineto
218 541 lineto
218 542 lineto
219 542 lineto
220 543 lineto
221 543 lineto
221 544 lineto
222 544 lineto
223 544 lineto
223 545 lineto
224 545 lineto
225 545 lineto
225 546 lineto
226 546 lineto
227 546 lineto
227 547 lineto
228 547 lineto
229 547 lineto
230 547 lineto
231 548 lineto
232 548 lineto
233 548 lineto
234 548 lineto
235 548 lineto
236 548 lineto
237 548 lineto
238 548 lineto
239 548 lineto
240 548 lineto
240 547 lineto
241 547 lineto
242 547 lineto
243 547 lineto
244 547 lineto
244 546 lineto
245 546 lineto
246 546 lineto
246 545 lineto
247 545 lineto
248 545 lineto
248 544 lineto
249 544 lineto
250 544 lineto
250 543 lineto
251 543 lineto
252 542 lineto
253 542 lineto
253 541 lineto
254 541 lineto
254 540 lineto
255 540 lineto
255 539 lineto
256 539 lineto
257 538 lineto
258 537 lineto
259 537 lineto
259 536 lineto
260 536 lineto
260 535 lineto
261 534 lineto
262 533 lineto
262 532 lineto
263 532 lineto
263 531 lineto
264 531 lineto
264 530 lineto
265 530 lineto
265 529 lineto
266 529 lineto
266 528 lineto
267 527 lineto
267 526 lineto
268 526 lineto
268 525 lineto
269 525 lineto
269 524 lineto
270 523 lineto
270 522 lineto
271 522 lineto
271 521 lineto
272 520 lineto
272 519 lineto
273 519 lineto
273 518 lineto
274 517 lineto
274 516 lineto
275 516 lineto
275 515 lineto
275 514 lineto
276 514 lineto
276 513 lineto
277 512 lineto
277 511 lineto
278 511 lineto
278 510 lineto
278 509 lineto
279 509 lineto
279 508 lineto
280 507 lineto
280 506 lineto
281 505 lineto
281 504 lineto
282 504 lineto
282 503 lineto
282 502 lineto
283 502 lineto
283 501 lineto
283 500 lineto
284 500 lineto
284 499 lineto
284 498 lineto
285 498 lineto
285 497 lineto
285 496 lineto
286 496 lineto
286 495 lineto
286 494 lineto
287 494 lineto
287 493 lineto
287 492 lineto
288 492 lineto
288 491 lineto
288 490 lineto
289 490 lineto
289 489 lineto
289 488 lineto
290 487 lineto
290 486 lineto
291 486 lineto
291 485 lineto
291 484 lineto
292 483 lineto
292 482 lineto
293 481 lineto
293 480 lineto
293 479 lineto
294 479 lineto
294 478 lineto
294 477 lineto
295 477 lineto
295 476 lineto
295 475 lineto
296 475 lineto
296 474 lineto
296 473 lineto
296 472 lineto
297 472 lineto
297 471 lineto
297 470 lineto
298 470 lineto
298 469 lineto
298 468 lineto
299 467 lineto
299 466 lineto
299 465 lineto
300 465 lineto
300 464 lineto
300 463 lineto
301 462 lineto
301 461 lineto
302 460 lineto
302 459 lineto
302 458 lineto
303 457 lineto
303 456 lineto
304 455 lineto
304 454 lineto
304 453 lineto
305 453 lineto
305 452 lineto
305 451 lineto
305 450 lineto
306 450 lineto
306 449 lineto
306 448 lineto
307 447 lineto
307 446 lineto
307 445 lineto
308 445 lineto
308 444 lineto
308 443 lineto
309 442 lineto
309 441 lineto
309 440 lineto
310 439 lineto
310 438 lineto
310 437 lineto
311 437 lineto
311 436 lineto
311 435 lineto
311 434 lineto
312 434 lineto
312 433 lineto
312 432 lineto
313 431 lineto
313 430 lineto
313 429 lineto
314 429 lineto
314 428 lineto
314 427 lineto
314 426 lineto
315 426 lineto
315 425 lineto
315 424 lineto
316 423 lineto
316 422 lineto
316 421 lineto
317 420 lineto
317 419 lineto
317 418 lineto
318 418 lineto
318 417 lineto
318 416 lineto
318 415 lineto
319 414 lineto
319 413 lineto
319 412 lineto
320 412 lineto
320 411 lineto
320 410 lineto
320 409 lineto
321 409 lineto
321 408 lineto
321 407 lineto
322 406 lineto
322 405 lineto
322 404 lineto
323 403 lineto
323 402 lineto
323 401 lineto
324 400 lineto
324 399 lineto
324 398 lineto
325 397 lineto
325 396 lineto
325 395 lineto
326 394 lineto
326 393 lineto
326 392 lineto
327 391 lineto
327 390 lineto
327 389 lineto
328 388 lineto
328 387 lineto
328 386 lineto
329 385 lineto
329 384 lineto
329 383 lineto
330 382 lineto
330 381 lineto
330 380 lineto
331 379 lineto
331 378 lineto
331 377 lineto
332 377 lineto
332 376 lineto
332 375 lineto
332 374 lineto
333 373 lineto
333 372 lineto
333 371 lineto
334 371 lineto
334 370 lineto
334 369 lineto
334 368 lineto
335 367 lineto
335 366 lineto
335 365 lineto
336 364 lineto
336 363 lineto
336 362 lineto
337 361 lineto
337 360 lineto
337 359 lineto
338 358 lineto
338 357 lineto
338 356 lineto
338 355 lineto
339 355 lineto
339 354 lineto
339 353 lineto
340 352 lineto
340 351 lineto
340 350 lineto
341 349 lineto
341 348 lineto
341 347 lineto
341 346 lineto
342 346 lineto
342 345 lineto
342 344 lineto
343 343 lineto
343 342 lineto
343 341 lineto
343 340 lineto
344 339 lineto
344 338 lineto
344 337 lineto
345 337 lineto
345 336 lineto
345 335 lineto
345 334 lineto
346 333 lineto
346 332 lineto
346 331 lineto
347 330 lineto
347 329 lineto
347 328 lineto
348 327 lineto
348 326 lineto
348 325 lineto
349 324 lineto
349 323 lineto
349 322 lineto
350 321 lineto
350 320 lineto
350 319 lineto
351 318 lineto
351 317 lineto
351 316 lineto
352 315 lineto
352 314 lineto
352 313 lineto
352 312 lineto
353 312 lineto
353 311 lineto
353 310 lineto
353 309 lineto
354 309 lineto
354 308 lineto
354 307 lineto
354 306 lineto
355 305 lineto
355 304 lineto
355 303 lineto
356 303 lineto
356 302 lineto
356 301 lineto
356 300 lineto
357 299 lineto
357 298 lineto
357 297 lineto
358 296 lineto
358 295 lineto
358 294 lineto
359 294 lineto
359 293 lineto
359 292 lineto
359 291 lineto
360 290 lineto
360 289 lineto
360 288 lineto
361 287 lineto
361 286 lineto
361 285 lineto
362 284 lineto
362 283 lineto
362 282 lineto
363 281 lineto
363 280 lineto
363 279 lineto
363 278 lineto
364 278 lineto
364 277 lineto
364 276 lineto
365 275 lineto
365 274 lineto
365 273 lineto
365 272 lineto
366 272 lineto
366 271 lineto
366 270 lineto
367 269 lineto
367 268 lineto
367 267 lineto
368 266 lineto
368 265 lineto
368 264 lineto
369 263 lineto
369 262 lineto
369 261 lineto
370 260 lineto
370 259 lineto
370 258 lineto
371 257 lineto
371 256 lineto
371 255 lineto
372 254 lineto
372 253 lineto
372 252 lineto
373 251 lineto
373 250 lineto
373 249 lineto
374 248 lineto
374 247 lineto
374 246 lineto
375 245 lineto
375 244 lineto
375 243 lineto
376 243 lineto
376 242 lineto
376 241 lineto
377 240 lineto
377 239 lineto
377 238 lineto
377 237 lineto
378 237 lineto
378 236 lineto
378 235 lineto
379 234 lineto
379 233 lineto
379 232 lineto
380 231 lineto
380 230 lineto
380 229 lineto
381 229 lineto
381 228 lineto
381 227 lineto
381 226 lineto
382 225 lineto
382 224 lineto
383 223 lineto
383 222 lineto
383 221 lineto
383 220 lineto
384 220 lineto
384 219 lineto
384 218 lineto
385 217 lineto
385 216 lineto
386 215 lineto
386 214 lineto
386 213 lineto
387 212 lineto
387 211 lineto
387 210 lineto
388 210 lineto
388 209 lineto
388 208 lineto
388 207 lineto
389 207 lineto
389 206 lineto
389 205 lineto
390 204 lineto
390 203 lineto
390 202 lineto
391 201 lineto
391 200 lineto
392 199 lineto
392 198 lineto
392 197 lineto
393 196 lineto
393 195 lineto
394 194 lineto
394 193 lineto
394 192 lineto
395 192 lineto
395 191 lineto
395 190 lineto
396 189 lineto
396 188 lineto
396 187 lineto
397 187 lineto
397 186 lineto
397 185 lineto
398 184 lineto
398 183 lineto
398 182 lineto
399 182 lineto
399 181 lineto
399 180 lineto
400 179 lineto
400 178 lineto
401 177 lineto
401 176 lineto
401 175 lineto
402 175 lineto
402 174 lineto
402 173 lineto
403 173 lineto
403 172 lineto
403 171 lineto
404 171 lineto
404 170 lineto
404 169 lineto
405 168 lineto
405 167 lineto
406 166 lineto
406 165 lineto
406 164 lineto
407 164 lineto
407 163 lineto
407 162 lineto
408 162 lineto
408 161 lineto
408 160 lineto
409 160 lineto
409 159 lineto
409 158 lineto
410 158 lineto
410 157 lineto
410 156 lineto
411 156 lineto
411 155 lineto
411 154 lineto
412 154 lineto
412 153 lineto
412 152 lineto
413 152 lineto
413 151 lineto
413 150 lineto
414 150 lineto
414 149 lineto
415 148 lineto
415 147 lineto
416 146 lineto
416 145 lineto
417 144 lineto
417 143 lineto
418 142 lineto
418 141 lineto
419 141 lineto
419 140 lineto
419 139 lineto
420 139 lineto
420 138 lineto
421 138 lineto
421 137 lineto
421 136 lineto
422 136 lineto
422 135 lineto
423 134 lineto
423 133 lineto
424 133 lineto
424 132 lineto
425 131 lineto
425 130 lineto
426 130 lineto
426 129 lineto
427 128 lineto
427 127 lineto
428 127 lineto
428 126 lineto
429 126 lineto
429 125 lineto
430 124 lineto
430 123 lineto
431 123 lineto
431 122 lineto
432 122 lineto
432 121 lineto
433 121 lineto
433 120 lineto
434 119 lineto
435 118 lineto
435 117 lineto
436 117 lineto
436 116 lineto
437 116 lineto
437 115 lineto
438 115 lineto
438 114 lineto
439 114 lineto
440 113 lineto
441 112 lineto
442 112 lineto
442 111 lineto
443 111 lineto
443 110 lineto
444 110 lineto
445 109 lineto
446 109 lineto
446 108 lineto
447 108 lineto
448 108 lineto
448 107 lineto
449 107 lineto
450 107 lineto
450 106 lineto
451 106 lineto
452 106 lineto
452 105 lineto
453 105 lineto
454 105 lineto
455 105 lineto
456 104 lineto
457 104 lineto
458 104 lineto
459 104 lineto
460 104 lineto
461 104 lineto
462 104 lineto
463 104 lineto
464 104 lineto
465 104 lineto
465 105 lineto
466 105 lineto
467 105 lineto
468 105 lineto
469 105 lineto
469 106 lineto
470 106 lineto
471 106 lineto
471 107 lineto
472 107 lineto
473 107 lineto
473 108 lineto
474 108 lineto
475 108 lineto
475 109 lineto
476 109 lineto
477 110 lineto
478 110 lineto
478 111 lineto
479 111 lineto
479 112 lineto
480 112 lineto
480 113 lineto
481 113 lineto
482 114 lineto
483 115 lineto
484 115 lineto
484 116 lineto
485 116 lineto
485 117 lineto
486 118 lineto
487 119 lineto
487 120 lineto
488 120 lineto
488 121 lineto
489 121 lineto
489 122 lineto
490 122 lineto
490 123 lineto
491 123 lineto
491 124 lineto
492 125 lineto
492 126 lineto
493 126 lineto
493 127 lineto
494 127 lineto
494 128 lineto
495 129 lineto
495 130 lineto
496 130 lineto
496 131 lineto
497 132 lineto
497 133 lineto
498 133 lineto
498 134 lineto
499 135 lineto
499 136 lineto
500 136 lineto
500 137 lineto
500 138 lineto
501 138 lineto
501 139 lineto
502 140 lineto
502 141 lineto
503 141 lineto
503 142 lineto
503 143 lineto
504 143 lineto
504 144 lineto
505 145 lineto
505 146 lineto
506 147 lineto
506 148 lineto
507 148 lineto
507 149 lineto
507 150 lineto
508 150 lineto
508 151 lineto
508 152 lineto
509 152 lineto
509 153 lineto
509 154 lineto
510 154 lineto
510 155 lineto
510 156 lineto
511 156 lineto
511 157 lineto
511 158 lineto
512 158 lineto
512 159 lineto
512 160 lineto
513 160 lineto
513 161 lineto
513 162 lineto
514 162 lineto
514 163 lineto
514 164 lineto
515 165 lineto
515 166 lineto
516 166 lineto
516 167 lineto
516 168 lineto
517 169 lineto
517 170 lineto
518 171 lineto
518 172 lineto
518 173 lineto
519 173 lineto
519 174 lineto
519 175 lineto
520 175 lineto
520 176 lineto
520 177 lineto
521 177 lineto
521 178 lineto
521 179 lineto
521 180 lineto
522 180 lineto
522 181 lineto
522 182 lineto
523 182 lineto
523 183 lineto
523 184 lineto
524 185 lineto
524 186 lineto
524 187 lineto
525 187 lineto
525 188 lineto
525 189 lineto
526 190 lineto
526 191 lineto
527 192 lineto
527 193 lineto
527 194 lineto
528 195 lineto
528 196 lineto
529 197 lineto
529 198 lineto
529 199 lineto
530 199 lineto
530 200 lineto
530 201 lineto
530 202 lineto
531 202 lineto
531 203 lineto
531 204 lineto
532 205 lineto
532 206 lineto
532 207 lineto
533 207 lineto
stroke
newpath
533 207 moveto
533 208 lineto
533 209 lineto
534 210 lineto
534 211 lineto
534 212 lineto
535 213 lineto
535 214 lineto
535 215 lineto
536 215 lineto
536 216 lineto
536 217 lineto
536 218 lineto
537 218 lineto
537 219 lineto
537 220 lineto
538 221 lineto
538 222 lineto
538 223 lineto
539 223 lineto
539 224 lineto
539 225 lineto
539 226 lineto
540 226 lineto
540 227 lineto
540 228 lineto
541 229 lineto
541 230 lineto
541 231 lineto
542 232 lineto
542 233 lineto
542 234 lineto
543 234 lineto
543 235 lineto
543 236 lineto
543 237 lineto
544 238 lineto
544 239 lineto
544 240 lineto
545 240 lineto
545 241 lineto
545 242 lineto
545 243 lineto
546 243 lineto
546 244 lineto
546 245 lineto
547 246 lineto
547 247 lineto
547 248 lineto
548 249 lineto
548 250 lineto
548 251 lineto
549 252 lineto
549 253 lineto
549 254 lineto
550 255 lineto
550 256 lineto
550 257 lineto
551 258 lineto
551 259 lineto
551 260 lineto
552 261 lineto
552 262 lineto
552 263 lineto
553 264 lineto
553 265 lineto
553 266 lineto
554 267 lineto
554 268 lineto
554 269 lineto
555 270 lineto
555 271 lineto
555 272 lineto
556 273 lineto
556 274 lineto
556 275 lineto
557 275 lineto
557 276 lineto
557 277 lineto
557 278 lineto
558 279 lineto
558 280 lineto
558 281 lineto
559 281 lineto
559 282 lineto
559 283 lineto
559 284 lineto
560 285 lineto
560 286 lineto
560 287 lineto
561 288 lineto
561 289 lineto
561 290 lineto
562 291 lineto
562 292 lineto
562 293 lineto
563 294 lineto
563 295 lineto
563 296 lineto
563 297 lineto
564 297 lineto
564 298 lineto
564 299 lineto
565 300 lineto
565 301 lineto
565 302 lineto
566 303 lineto
566 304 lineto
566 305 lineto
566 306 lineto
567 306 lineto
567 307 lineto
567 308 lineto
568 309 lineto
568 310 lineto
568 311 lineto
568 312 lineto
569 313 lineto
569 314 lineto
569 315 lineto
570 315 lineto
570 316 lineto
570 317 lineto
570 318 lineto
571 319 lineto
571 320 lineto
571 321 lineto
572 322 lineto
572 323 lineto
572 324 lineto
573 325 lineto
573 326 lineto
stroke
showpage
%%EOF
