%!PS-Adobe-3.0 EPSF-3.0
%%Creator: nutmeg
%%BoundingBox: 54 54 612 612
1 1 scale
/Helvetica findfont 10 scalefont setfont

[1 2] 0 setdash
[] 0 setdash
243 66 moveto
(t[ms]) show
[1 2] 0 setdash
[] 0 setdash
54 331 moveto
(i[A]) show
[1 2] 0 setdash
[] 0 setdash
newpath
78 104 moveto
78 549 lineto
stroke
[1 2] 0 setdash
[] 0 setdash
72 87 moveto
(0.0) show
[1 2] 0 setdash
newpath
127 104 moveto
127 549 lineto
stroke
[] 0 setdash
121 87 moveto
(0.5) show
[1 2] 0 setdash
newpath
176 104 moveto
176 549 lineto
stroke
[] 0 setdash
170 87 moveto
(1.0) show
[1 2] 0 setdash
newpath
225 104 moveto
225 549 lineto
stroke
[] 0 setdash
219 87 moveto
(1.5) show
[1 2] 0 setdash
newpath
274 104 moveto
274 549 lineto
stroke
[] 0 setdash
268 87 moveto
(2.0) show
[1 2] 0 setdash
newpath
323 104 moveto
323 549 lineto
stroke
[] 0 setdash
317 87 moveto
(2.5) show
[1 2] 0 setdash
newpath
372 104 moveto
372 549 lineto
stroke
[] 0 setdash
366 87 moveto
(3.0) show
[1 2] 0 setdash
newpath
421 104 moveto
421 549 lineto
stroke
[] 0 setdash
415 87 moveto
(3.5) show
[1 2] 0 setdash
newpath
470 104 moveto
470 549 lineto
stroke
[] 0 setdash
464 87 moveto
(4.0) show
[1 2] 0 setdash
newpath
519 104 moveto
519 549 lineto
stroke
[] 0 setdash
513 87 moveto
(4.5) show
[1 2] 0 setdash
newpath
568 104 moveto
568 549 lineto
stroke
[] 0 setdash
562 87 moveto
(5.0) show
[1 2] 0 setdash
[] 0 setdash
382 66 moveto
(ms) show
[1 2] 0 setdash
[] 0 setdash
newpath
78 104 moveto
568 104 lineto
stroke
[1 2] 0 setdash
[] 0 setdash
60 101 moveto
(0.0) show
[1 2] 0 setdash
newpath
78 193 moveto
568 193 lineto
stroke
[] 0 setdash
60 190 moveto
(1.0) show
[1 2] 0 setdash
newpath
78 282 moveto
568 282 lineto
stroke
[] 0 setdash
60 279 moveto
(2.0) show
[1 2] 0 setdash
newpath
78 371 moveto
568 371 lineto
stroke
[] 0 setdash
60 368 moveto
(3.0) show
[1 2] 0 setdash
newpath
78 460 moveto
568 460 lineto
stroke
[] 0 setdash
60 457 moveto
(4.0) show
[1 2] 0 setdash
newpath
78 549 moveto
568 549 lineto
stroke
[] 0 setdash
60 546 moveto
(5.0) show
[1 2] 0 setdash
[] 0 setdash
54 582 moveto
(mA) show
[1 2] 0 setdash
[7 7] 0 setdash
newpath
293 586 moveto
317 586 lineto
stroke
[] 0 setdash
323 582 moveto
(i(Vi)) show
[7 7] 0 setdash
newpath
78 104 moveto
78 108 lineto
78 109 lineto
78 110 lineto
78 111 lineto
78 114 lineto
78 120 lineto
78 132 lineto
78 156 lineto
78 204 lineto
78 299 lineto
79 489 lineto
79 547 lineto
79 546 lineto
80 544 lineto
80 541 lineto
81 537 lineto
82 532 lineto
83 528 lineto
84 524 lineto
85 520 lineto
86 516 lineto
87 512 lineto
88 507 lineto
89 503 lineto
90 500 lineto
91 496 lineto
92 492 lineto
93 488 lineto
94 484 lineto
95 480 lineto
96 476 lineto
97 473 lineto
98 469 lineto
99 465 lineto
100 462 lineto
101 458 lineto
102 455 lineto
103 451 lineto
104 448 lineto
105 444 lineto
106 441 lineto
107 438 lineto
108 434 lineto
109 431 lineto
110 428 lineto
111 425 lineto
112 421 lineto
113 418 lineto
114 415 lineto
115 412 lineto
116 409 lineto
117 406 lineto
117 403 lineto
118 400 lineto
119 397 lineto
120 394 lineto
121 391 lineto
122 388 lineto
123 386 lineto
124 383 lineto
125 380 lineto
126 377 lineto
127 374 lineto
128 372 lineto
129 369 lineto
130 366 lineto
131 364 lineto
132 361 lineto
133 359 lineto
134 356 lineto
135 354 lineto
136 351 lineto
137 349 lineto
138 346 lineto
139 344 lineto
140 342 lineto
141 339 lineto
142 337 lineto
143 334 lineto
144 332 lineto
145 330 lineto
146 328 lineto
147 325 lineto
148 323 lineto
149 321 lineto
150 319 lineto
151 317 lineto
152 315 lineto
153 313 lineto
154 310 lineto
155 308 lineto
156 306 lineto
157 304 lineto
158 302 lineto
159 300 lineto
160 298 lineto
161 297 lineto
162 295 lineto
163 293 lineto
164 291 lineto
165 289 lineto
166 287 lineto
166 285 lineto
167 283 lineto
168 282 lineto
169 280 lineto
170 278 lineto
171 276 lineto
172 275 lineto
173 273 lineto
174 271 lineto
175 270 lineto
176 268 lineto
177 266 lineto
178 265 lineto
179 263 lineto
180 262 lineto
181 260 lineto
182 258 lineto
183 257 lineto
184 255 lineto
185 254 lineto
186 252 lineto
187 251 lineto
188 249 lineto
189 248 lineto
190 247 lineto
191 245 lineto
192 244 lineto
193 242 lineto
194 241 lineto
195 240 lineto
196 238 lineto
197 237 lineto
198 236 lineto
199 234 lineto
200 233 lineto
201 232 lineto
202 230 lineto
203 229 lineto
204 228 lineto
205 227 lineto
206 226 lineto
207 224 lineto
208 223 lineto
209 222 lineto
210 221 lineto
211 220 lineto
212 218 lineto
213 217 lineto
214 216 lineto
215 215 lineto
215 214 lineto
216 213 lineto
217 212 lineto
218 211 lineto
219 210 lineto
220 209 lineto
221 208 lineto
222 207 lineto
223 206 lineto
224 205 lineto
225 204 lineto
226 203 lineto
227 202 lineto
228 201 lineto
229 200 lineto
230 199 lineto
231 198 lineto
232 197 lineto
233 196 lineto
234 195 lineto
235 194 lineto
236 193 lineto
237 192 lineto
238 191 lineto
239 191 lineto
240 190 lineto
241 189 lineto
242 188 lineto
243 187 lineto
244 186 lineto
245 185 lineto
246 185 lineto
247 184 lineto
248 183 lineto
249 182 lineto
250 181 lineto
251 181 lineto
252 180 lineto
253 179 lineto
254 178 lineto
255 178 lineto
256 177 lineto
257 176 lineto
258 176 lineto
259 175 lineto
260 174 lineto
261 173 lineto
262 173 lineto
263 172 lineto
264 171 lineto
265 170 lineto
266 169 lineto
267 169 lineto
268 168 lineto
269 167 lineto
270 167 lineto
271 166 lineto
272 166 lineto
273 165 lineto
274 164 lineto
275 164 lineto
276 163 lineto
277 163 lineto
278 162 lineto
279 161 lineto
280 161 lineto
281 160 lineto
282 160 lineto
283 159 lineto
284 159 lineto
285 158 lineto
286 158 lineto
287 157 lineto
288 156 lineto
289 156 lineto
290 155 lineto
291 155 lineto
292 154 lineto
293 154 lineto
294 153 lineto
295 153 lineto
296 152 lineto
297 152 lineto
298 151 lineto
299 151 lineto
300 151 lineto
301 150 lineto
302 150 lineto
303 149 lineto
304 149 lineto
305 148 lineto
306 148 lineto
307 147 lineto
308 147 lineto
309 147 lineto
310 146 lineto
311 146 lineto
312 145 lineto
313 145 lineto
313 144 lineto
314 144 lineto
315 144 lineto
316 143 lineto
317 143 lineto
318 142 lineto
319 142 lineto
320 142 lineto
321 141 lineto
322 141 lineto
323 141 lineto
324 140 lineto
325 140 lineto
326 140 lineto
327 139 lineto
328 139 lineto
329 138 lineto
330 138 lineto
331 138 lineto
332 137 lineto
333 137 lineto
334 137 lineto
335 136 lineto
336 136 lineto
337 136 lineto
338 136 lineto
339 135 lineto
340 135 lineto
341 135 lineto
342 134 lineto
343 134 lineto
344 134 lineto
345 133 lineto
346 133 lineto
347 133 lineto
348 133 lineto
349 132 lineto
350 132 lineto
351 132 lineto
352 131 lineto
353 131 lineto
354 131 lineto
355 131 lineto
356 130 lineto
357 130 lineto
358 130 lineto
359 130 lineto
360 129 lineto
361 129 lineto
362 129 lineto
363 128 lineto
364 128 lineto
365 128 lineto
366 128 lineto
367 127 lineto
368 127 lineto
369 127 lineto
370 127 lineto
371 126 lineto
372 126 lineto
373 126 lineto
374 126 lineto
375 126 lineto
376 125 lineto
377 125 lineto
378 125 lineto
379 125 lineto
380 124 lineto
381 124 lineto
382 124 lineto
383 124 lineto
384 124 lineto
385 123 lineto
386 123 lineto
387 123 lineto
388 123 lineto
389 123 lineto
390 123 lineto
391 122 lineto
392 122 lineto
393 122 lineto
394 122 lineto
395 122 lineto
396 121 lineto
397 121 lineto
398 121 lineto
399 121 lineto
400 121 lineto
401 121 lineto
402 120 lineto
403 120 lineto
404 120 lineto
405 120 lineto
406 120 lineto
407 120 lineto
408 119 lineto
409 119 lineto
410 119 lineto
411 119 lineto
412 119 lineto
413 119 lineto
414 118 lineto
415 118 lineto
416 118 lineto
417 118 lineto
418 118 lineto
419 118 lineto
420 118 lineto
421 117 lineto
422 117 lineto
423 117 lineto
424 117 lineto
425 117 lineto
426 117 lineto
427 117 lineto
428 117 lineto
429 116 lineto
430 116 lineto
431 116 lineto
432 116 lineto
433 116 lineto
434 116 lineto
435 116 lineto
436 116 lineto
437 115 lineto
438 115 lineto
439 115 lineto
440 115 lineto
441 115 lineto
442 115 lineto
443 115 lineto
444 115 lineto
445 115 lineto
446 114 lineto
447 114 lineto
448 114 lineto
449 114 lineto
450 114 lineto
451 114 lineto
452 114 lineto
453 114 lineto
454 114 lineto
455 114 lineto
456 113 lineto
457 113 lineto
458 113 lineto
459 113 lineto
460 113 lineto
461 113 lineto
462 113 lineto
463 113 lineto
464 113 lineto
465 113 lineto
466 113 lineto
467 112 lineto
468 112 lineto
469 112 lineto
470 112 lineto
471 112 lineto
472 112 lineto
473 112 lineto
474 112 lineto
475 112 lineto
476 112 lineto
477 112 lineto
478 112 lineto
479 111 lineto
480 111 lineto
481 111 lineto
482 111 lineto
483 111 lineto
484 111 lineto
485 111 lineto
486 111 lineto
487 111 lineto
488 111 lineto
489 111 lineto
490 111 lineto
491 111 lineto
492 111 lineto
493 110 lineto
494 110 lineto
495 110 lineto
496 110 lineto
497 110 lineto
498 110 lineto
499 110 lineto
500 110 lineto
501 110 lineto
502 110 lineto
503 110 lineto
504 110 lineto
505 110 lineto
506 110 lineto
507 110 lineto
508 110 lineto
509 110 lineto
509 109 lineto
510 109 lineto
511 109 lineto
512 109 lineto
513 109 lineto
514 109 lineto
515 109 lineto
516 109 lineto
517 109 lineto
518 109 lineto
519 109 lineto
520 109 lineto
521 109 lineto
522 109 lineto
523 109 lineto
524 109 lineto
525 109 lineto
526 109 lineto
527 109 lineto
528 109 lineto
529 108 lineto
530 108 lineto
531 108 lineto
532 108 lineto
533 108 lineto
534 108 lineto
535 108 lineto
536 108 lineto
537 108 lineto
538 108 lineto
539 108 lineto
540 108 lineto
541 108 lineto
542 108 lineto
543 108 lineto
544 108 lineto
545 108 lineto
546 108 lineto
547 108 lineto
548 108 lineto
549 108 lineto
550 108 lineto
551 108 lineto
552 108 lineto
553 108 lineto
554 107 lineto
555 107 lineto
556 107 lineto
557 107 lineto
558 107 lineto
559 107 lineto
560 107 lineto
561 107 lineto
562 107 lineto
563 107 lineto
564 107 lineto
565 107 lineto
566 107 lineto
567 107 lineto
568 107 lineto
stroke
showpage
%%EOF
