%!PS-Adobe-3.0 EPSF-3.0
%%Creator: nutmeg
%%BoundingBox: 54 54 612 612
1 1 scale
/Helvetica findfont 10 scalefont setfont

[1 2] 0 setdash
[] 0 setdash
243 66 moveto
(t[ms]) show
[1 2] 0 setdash
[] 0 setdash
54 331 moveto
(i[A],Vs[V]) show
[1 2] 0 setdash
newpath
78 104 moveto
78 548 lineto
stroke
[] 0 setdash
66 87 moveto
(18.0) show
[1 2] 0 setdash
newpath
123 104 moveto
123 548 lineto
stroke
[] 0 setdash
111 87 moveto
(20.0) show
[1 2] 0 setdash
newpath
168 104 moveto
168 548 lineto
stroke
[] 0 setdash
156 87 moveto
(22.0) show
[1 2] 0 setdash
newpath
213 104 moveto
213 548 lineto
stroke
[] 0 setdash
201 87 moveto
(24.0) show
[1 2] 0 setdash
newpath
258 104 moveto
258 548 lineto
stroke
[] 0 setdash
246 87 moveto
(26.0) show
[1 2] 0 setdash
newpath
303 104 moveto
303 548 lineto
stroke
[] 0 setdash
291 87 moveto
(28.0) show
[1 2] 0 setdash
newpath
348 104 moveto
348 548 lineto
stroke
[] 0 setdash
336 87 moveto
(30.0) show
[1 2] 0 setdash
newpath
393 104 moveto
393 548 lineto
stroke
[] 0 setdash
381 87 moveto
(32.0) show
[1 2] 0 setdash
newpath
438 104 moveto
438 548 lineto
stroke
[] 0 setdash
426 87 moveto
(34.0) show
[1 2] 0 setdash
newpath
483 104 moveto
483 548 lineto
stroke
[] 0 setdash
471 87 moveto
(36.0) show
[1 2] 0 setdash
newpath
528 104 moveto
528 548 lineto
stroke
[] 0 setdash
516 87 moveto
(38.0) show
[1 2] 0 setdash
newpath
573 104 moveto
573 548 lineto
stroke
[] 0 setdash
561 87 moveto
(40.0) show
[1 2] 0 setdash
[] 0 setdash
382 66 moveto
(ms) show
[1 2] 0 setdash
newpath
78 104 moveto
573 104 lineto
stroke
[] 0 setdash
54 101 moveto
(-1.0) show
[1 2] 0 setdash
newpath
78 215 moveto
573 215 lineto
stroke
[] 0 setdash
54 212 moveto
(-0.5) show
[1 2] 0 setdash
[] 0 setdash
newpath
78 326 moveto
573 326 lineto
stroke
[1 2] 0 setdash
[] 0 setdash
60 323 moveto
(0.0) show
[1 2] 0 setdash
newpath
78 437 moveto
573 437 lineto
stroke
[] 0 setdash
60 434 moveto
(0.5) show
[1 2] 0 setdash
newpath
78 548 moveto
573 548 lineto
stroke
[] 0 setdash
60 545 moveto
(1.0) show
[1 2] 0 setdash
[] 0 setdash
54 582 moveto
(Units) show
[1 2] 0 setdash
[7 7] 0 setdash
newpath
295 586 moveto
319 586 lineto
stroke
[] 0 setdash
325 582 moveto
(i(Vi)) show
[7 7] 0 setdash
newpath
123 326 moveto
124 327 lineto
124 328 lineto
125 329 lineto
125 330 lineto
126 330 lineto
126 331 lineto
127 332 lineto
127 333 lineto
128 333 lineto
128 334 lineto
129 335 lineto
129 336 lineto
130 336 lineto
130 337 lineto
130 338 lineto
131 338 lineto
131 339 lineto
132 339 lineto
132 340 lineto
133 341 lineto
133 342 lineto
134 342 lineto
134 343 lineto
135 344 lineto
135 345 lineto
136 346 lineto
136 347 lineto
137 347 lineto
137 348 lineto
138 349 lineto
138 350 lineto
139 350 lineto
139 351 lineto
140 352 lineto
140 353 lineto
141 353 lineto
141 354 lineto
142 354 lineto
142 355 lineto
142 356 lineto
143 356 lineto
143 357 lineto
144 357 lineto
144 358 lineto
144 359 lineto
145 359 lineto
145 360 lineto
146 360 lineto
146 361 lineto
146 362 lineto
147 362 lineto
147 363 lineto
148 363 lineto
148 364 lineto
148 365 lineto
149 365 lineto
149 366 lineto
150 366 lineto
150 367 lineto
151 368 lineto
151 369 lineto
152 369 lineto
152 370 lineto
153 370 lineto
153 371 lineto
153 372 lineto
154 372 lineto
154 373 lineto
155 373 lineto
155 374 lineto
155 375 lineto
156 375 lineto
156 376 lineto
157 376 lineto
157 377 lineto
158 378 lineto
158 379 lineto
159 379 lineto
159 380 lineto
160 380 lineto
160 381 lineto
161 382 lineto
161 383 lineto
162 383 lineto
162 384 lineto
163 384 lineto
163 385 lineto
164 386 lineto
164 387 lineto
165 387 lineto
165 388 lineto
166 388 lineto
166 389 lineto
167 390 lineto
168 391 lineto
168 392 lineto
169 392 lineto
169 393 lineto
170 393 lineto
170 394 lineto
171 394 lineto
171 395 lineto
172 396 lineto
172 397 lineto
173 397 lineto
173 398 lineto
174 398 lineto
174 399 lineto
175 399 lineto
175 400 lineto
176 401 lineto
177 402 lineto
178 403 lineto
178 404 lineto
179 404 lineto
179 405 lineto
180 405 lineto
180 406 lineto
181 406 lineto
181 407 lineto
182 407 lineto
182 408 lineto
183 408 lineto
183 409 lineto
184 409 lineto
184 410 lineto
185 410 lineto
185 411 lineto
186 411 lineto
186 412 lineto
187 412 lineto
187 413 lineto
188 413 lineto
188 414 lineto
189 414 lineto
189 415 lineto
190 415 lineto
190 416 lineto
191 416 lineto
191 417 lineto
192 417 lineto
193 418 lineto
194 419 lineto
195 419 lineto
195 420 lineto
196 420 lineto
196 421 lineto
197 421 lineto
197 422 lineto
198 422 lineto
199 423 lineto
200 423 lineto
200 424 lineto
201 424 lineto
201 425 lineto
202 425 lineto
203 426 lineto
204 426 lineto
204 427 lineto
205 427 lineto
206 427 lineto
206 428 lineto
207 428 lineto
207 429 lineto
208 429 lineto
209 429 lineto
209 430 lineto
210 430 lineto
211 430 lineto
211 431 lineto
212 431 lineto
213 431 lineto
213 432 lineto
214 432 lineto
215 432 lineto
215 433 lineto
216 433 lineto
217 433 lineto
218 434 lineto
219 434 lineto
220 434 lineto
220 435 lineto
221 435 lineto
222 435 lineto
223 435 lineto
224 435 lineto
224 436 lineto
225 436 lineto
226 436 lineto
227 436 lineto
228 436 lineto
229 436 lineto
229 437 lineto
230 437 lineto
231 437 lineto
232 437 lineto
233 437 lineto
234 437 lineto
235 437 lineto
236 437 lineto
237 437 lineto
238 437 lineto
239 437 lineto
240 437 lineto
241 437 lineto
242 437 lineto
242 436 lineto
243 436 lineto
244 436 lineto
245 436 lineto
246 436 lineto
247 436 lineto
247 435 lineto
248 435 lineto
249 435 lineto
250 435 lineto
251 435 lineto
251 434 lineto
252 434 lineto
253 434 lineto
254 433 lineto
255 433 lineto
256 433 lineto
256 432 lineto
257 432 lineto
258 432 lineto
258 431 lineto
259 431 lineto
260 431 lineto
260 430 lineto
261 430 lineto
262 430 lineto
262 429 lineto
263 429 lineto
264 429 lineto
264 428 lineto
265 428 lineto
265 427 lineto
266 427 lineto
267 427 lineto
267 426 lineto
268 426 lineto
268 425 lineto
269 425 lineto
270 425 lineto
270 424 lineto
271 424 lineto
271 423 lineto
272 423 lineto
273 422 lineto
274 422 lineto
274 421 lineto
275 421 lineto
275 420 lineto
276 420 lineto
276 419 lineto
277 419 lineto
278 418 lineto
279 418 lineto
279 417 lineto
280 417 lineto
280 416 lineto
281 416 lineto
281 415 lineto
282 415 lineto
282 414 lineto
283 414 lineto
283 413 lineto
284 413 lineto
284 412 lineto
285 412 lineto
285 411 lineto
286 411 lineto
286 410 lineto
287 410 lineto
287 409 lineto
288 409 lineto
288 408 lineto
289 408 lineto
289 407 lineto
290 407 lineto
290 406 lineto
291 406 lineto
291 405 lineto
292 405 lineto
292 404 lineto
293 403 lineto
294 402 lineto
295 401 lineto
295 400 lineto
296 400 lineto
296 399 lineto
297 399 lineto
297 398 lineto
298 398 lineto
298 397 lineto
299 397 lineto
299 396 lineto
300 395 lineto
301 394 lineto
301 393 lineto
302 393 lineto
302 392 lineto
303 392 lineto
303 391 lineto
304 391 lineto
304 390 lineto
304 389 lineto
305 389 lineto
305 388 lineto
306 388 lineto
306 387 lineto
307 387 lineto
307 386 lineto
308 385 lineto
308 384 lineto
309 384 lineto
309 383 lineto
310 383 lineto
310 382 lineto
311 381 lineto
311 380 lineto
312 380 lineto
312 379 lineto
313 379 lineto
313 378 lineto
314 377 lineto
314 376 lineto
315 376 lineto
315 375 lineto
316 374 lineto
316 373 lineto
317 373 lineto
317 372 lineto
318 372 lineto
318 371 lineto
319 370 lineto
319 369 lineto
320 369 lineto
320 368 lineto
321 367 lineto
321 366 lineto
322 366 lineto
322 365 lineto
323 364 lineto
324 363 lineto
324 362 lineto
325 362 lineto
325 361 lineto
326 360 lineto
326 359 lineto
327 359 lineto
327 358 lineto
328 357 lineto
328 356 lineto
329 356 lineto
329 355 lineto
330 354 lineto
330 353 lineto
331 353 lineto
331 352 lineto
331 351 lineto
332 351 lineto
332 350 lineto
333 350 lineto
333 349 lineto
333 348 lineto
334 348 lineto
334 347 lineto
335 347 lineto
335 346 lineto
335 345 lineto
336 345 lineto
336 344 lineto
337 344 lineto
337 343 lineto
337 342 lineto
338 342 lineto
338 341 lineto
339 341 lineto
339 340 lineto
339 339 lineto
340 339 lineto
340 338 lineto
341 337 lineto
341 336 lineto
342 336 lineto
342 335 lineto
343 334 lineto
343 333 lineto
344 333 lineto
344 332 lineto
344 331 lineto
345 331 lineto
345 330 lineto
346 330 lineto
346 329 lineto
346 328 lineto
347 328 lineto
347 327 lineto
348 327 lineto
348 326 lineto
349 325 lineto
349 324 lineto
350 323 lineto
350 322 lineto
351 322 lineto
351 321 lineto
352 320 lineto
352 319 lineto
353 319 lineto
353 318 lineto
354 317 lineto
354 316 lineto
355 316 lineto
355 315 lineto
355 314 lineto
356 314 lineto
356 313 lineto
357 313 lineto
357 312 lineto
358 311 lineto
358 310 lineto
359 310 lineto
359 309 lineto
360 308 lineto
360 307 lineto
361 306 lineto
361 305 lineto
362 305 lineto
362 304 lineto
363 303 lineto
363 302 lineto
364 302 lineto
364 301 lineto
365 300 lineto
365 299 lineto
366 299 lineto
366 298 lineto
367 298 lineto
367 297 lineto
367 296 lineto
368 296 lineto
368 295 lineto
369 295 lineto
369 294 lineto
369 293 lineto
370 293 lineto
370 292 lineto
371 292 lineto
371 291 lineto
371 290 lineto
372 290 lineto
372 289 lineto
373 289 lineto
373 288 lineto
373 287 lineto
374 287 lineto
374 286 lineto
375 286 lineto
375 285 lineto
376 284 lineto
376 283 lineto
377 283 lineto
377 282 lineto
378 282 lineto
378 281 lineto
378 280 lineto
379 280 lineto
379 279 lineto
380 279 lineto
380 278 lineto
380 277 lineto
381 277 lineto
381 276 lineto
382 276 lineto
382 275 lineto
383 274 lineto
383 273 lineto
384 273 lineto
384 272 lineto
385 272 lineto
385 271 lineto
386 270 lineto
386 269 lineto
387 269 lineto
387 268 lineto
388 268 lineto
388 267 lineto
389 266 lineto
389 265 lineto
390 265 lineto
390 264 lineto
391 264 lineto
391 263 lineto
392 262 lineto
393 261 lineto
393 260 lineto
394 260 lineto
394 259 lineto
395 259 lineto
395 258 lineto
396 258 lineto
396 257 lineto
397 256 lineto
397 255 lineto
398 255 lineto
398 254 lineto
399 254 lineto
399 253 lineto
400 253 lineto
400 252 lineto
401 251 lineto
402 250 lineto
403 249 lineto
403 248 lineto
404 248 lineto
404 247 lineto
405 247 lineto
405 246 lineto
406 246 lineto
406 245 lineto
407 245 lineto
407 244 lineto
408 244 lineto
408 243 lineto
409 243 lineto
409 242 lineto
410 242 lineto
410 241 lineto
411 241 lineto
411 240 lineto
412 240 lineto
412 239 lineto
413 239 lineto
413 238 lineto
414 238 lineto
414 237 lineto
415 237 lineto
415 236 lineto
416 236 lineto
416 235 lineto
417 235 lineto
418 234 lineto
419 233 lineto
420 233 lineto
420 232 lineto
421 232 lineto
421 231 lineto
422 231 lineto
422 230 lineto
423 230 lineto
424 229 lineto
425 229 lineto
425 228 lineto
426 228 lineto
426 227 lineto
427 227 lineto
428 226 lineto
429 226 lineto
429 225 lineto
430 225 lineto
431 225 lineto
431 224 lineto
432 224 lineto
432 223 lineto
433 223 lineto
434 223 lineto
434 222 lineto
435 222 lineto
436 222 lineto
436 221 lineto
437 221 lineto
438 221 lineto
438 220 lineto
439 220 lineto
440 220 lineto
440 219 lineto
441 219 lineto
442 219 lineto
443 218 lineto
444 218 lineto
445 218 lineto
445 217 lineto
446 217 lineto
447 217 lineto
448 217 lineto
449 217 lineto
449 216 lineto
450 216 lineto
451 216 lineto
452 216 lineto
453 216 lineto
454 216 lineto
454 215 lineto
455 215 lineto
456 215 lineto
457 215 lineto
458 215 lineto
459 215 lineto
460 215 lineto
461 215 lineto
462 215 lineto
463 215 lineto
464 215 lineto
465 215 lineto
466 215 lineto
467 215 lineto
467 216 lineto
468 216 lineto
469 216 lineto
470 216 lineto
471 216 lineto
472 216 lineto
472 217 lineto
473 217 lineto
474 217 lineto
475 217 lineto
476 217 lineto
476 218 lineto
477 218 lineto
478 218 lineto
479 219 lineto
480 219 lineto
481 219 lineto
481 220 lineto
482 220 lineto
483 220 lineto
483 221 lineto
484 221 lineto
485 221 lineto
485 222 lineto
486 222 lineto
487 222 lineto
487 223 lineto
488 223 lineto
489 223 lineto
489 224 lineto
490 224 lineto
490 225 lineto
491 225 lineto
492 225 lineto
492 226 lineto
493 226 lineto
493 227 lineto
494 227 lineto
495 227 lineto
495 228 lineto
496 228 lineto
496 229 lineto
497 229 lineto
498 230 lineto
499 230 lineto
499 231 lineto
500 231 lineto
500 232 lineto
501 232 lineto
501 233 lineto
502 233 lineto
503 234 lineto
504 234 lineto
504 235 lineto
505 235 lineto
505 236 lineto
506 236 lineto
506 237 lineto
507 237 lineto
507 238 lineto
508 238 lineto
508 239 lineto
509 239 lineto
509 240 lineto
510 240 lineto
510 241 lineto
511 241 lineto
511 242 lineto
512 242 lineto
512 243 lineto
513 243 lineto
513 244 lineto
514 244 lineto
514 245 lineto
515 245 lineto
515 246 lineto
516 246 lineto
516 247 lineto
517 247 lineto
517 248 lineto
518 249 lineto
519 250 lineto
520 251 lineto
520 252 lineto
521 252 lineto
521 253 lineto
522 253 lineto
522 254 lineto
523 254 lineto
523 255 lineto
524 255 lineto
524 256 lineto
525 257 lineto
526 258 lineto
526 259 lineto
527 259 lineto
527 260 lineto
528 260 lineto
528 261 lineto
529 261 lineto
529 262 lineto
529 263 lineto
530 263 lineto
530 264 lineto
531 264 lineto
531 265 lineto
532 265 lineto
532 266 lineto
533 267 lineto
533 268 lineto
534 268 lineto
534 269 lineto
535 269 lineto
535 270 lineto
536 271 lineto
536 272 lineto
537 272 lineto
537 273 lineto
538 273 lineto
538 274 lineto
539 275 lineto
539 276 lineto
540 276 lineto
540 277 lineto
541 278 lineto
541 279 lineto
542 279 lineto
542 280 lineto
543 280 lineto
543 281 lineto
544 282 lineto
544 283 lineto
545 283 lineto
545 284 lineto
546 285 lineto
546 286 lineto
547 286 lineto
547 287 lineto
548 288 lineto
549 289 lineto
549 290 lineto
550 290 lineto
550 291 lineto
551 292 lineto
551 293 lineto
552 293 lineto
552 294 lineto
553 295 lineto
553 296 lineto
554 296 lineto
554 297 lineto
555 298 lineto
555 299 lineto
556 299 lineto
556 300 lineto
556 301 lineto
557 301 lineto
557 302 lineto
558 302 lineto
558 303 lineto
558 304 lineto
559 304 lineto
559 305 lineto
560 305 lineto
560 306 lineto
560 307 lineto
561 307 lineto
561 308 lineto
562 308 lineto
562 309 lineto
562 310 lineto
563 310 lineto
563 311 lineto
564 311 lineto
564 312 lineto
564 313 lineto
565 313 lineto
565 314 lineto
566 315 lineto
566 316 lineto
567 316 lineto
567 317 lineto
568 318 lineto
568 319 lineto
569 319 lineto
569 320 lineto
569 321 lineto
570 321 lineto
570 322 lineto
571 322 lineto
571 323 lineto
571 324 lineto
572 324 lineto
572 325 lineto
573 325 lineto
573 326 lineto
stroke
[3 3] 0 setdash
newpath
78 586 moveto
102 586 lineto
stroke
[] 0 setdash
108 582 moveto
(.V(1)) show
[3 3] 0 setdash
newpath
123 326 moveto
123 327 lineto
124 328 lineto
124 329 lineto
124 330 lineto
125 331 lineto
125 332 lineto
125 333 lineto
126 334 lineto
126 335 lineto
126 336 lineto
126 337 lineto
127 337 lineto
127 338 lineto
127 339 lineto
128 340 lineto
128 341 lineto
128 342 lineto
128 343 lineto
129 344 lineto
129 345 lineto
129 346 lineto
130 346 lineto
130 347 lineto
130 348 lineto
130 349 lineto
131 350 lineto
131 351 lineto
131 352 lineto
132 353 lineto
132 354 lineto
132 355 lineto
133 355 lineto
133 356 lineto
133 357 lineto
133 358 lineto
134 359 lineto
134 360 lineto
134 361 lineto
135 362 lineto
135 363 lineto
135 364 lineto
136 365 lineto
136 366 lineto
136 367 lineto
137 368 lineto
137 369 lineto
137 370 lineto
137 371 lineto
138 371 lineto
138 372 lineto
138 373 lineto
139 374 lineto
139 375 lineto
139 376 lineto
139 377 lineto
140 377 lineto
140 378 lineto
140 379 lineto
141 380 lineto
141 381 lineto
141 382 lineto
142 383 lineto
142 384 lineto
142 385 lineto
143 386 lineto
143 387 lineto
143 388 lineto
144 389 lineto
144 390 lineto
144 391 lineto
145 392 lineto
145 393 lineto
145 394 lineto
146 395 lineto
146 396 lineto
146 397 lineto
147 398 lineto
147 399 lineto
147 400 lineto
148 401 lineto
148 402 lineto
148 403 lineto
149 404 lineto
149 405 lineto
149 406 lineto
150 407 lineto
150 408 lineto
150 409 lineto
151 409 lineto
151 410 lineto
151 411 lineto
151 412 lineto
152 412 lineto
152 413 lineto
152 414 lineto
153 415 lineto
153 416 lineto
153 417 lineto
153 418 lineto
154 418 lineto
154 419 lineto
154 420 lineto
155 421 lineto
155 422 lineto
155 423 lineto
156 424 lineto
156 425 lineto
156 426 lineto
157 426 lineto
157 427 lineto
157 428 lineto
157 429 lineto
158 429 lineto
158 430 lineto
158 431 lineto
159 432 lineto
159 433 lineto
159 434 lineto
160 434 lineto
160 435 lineto
160 436 lineto
160 437 lineto
161 437 lineto
161 438 lineto
161 439 lineto
162 440 lineto
162 441 lineto
162 442 lineto
163 443 lineto
163 444 lineto
163 445 lineto
164 445 lineto
164 446 lineto
164 447 lineto
165 448 lineto
165 449 lineto
165 450 lineto
166 450 lineto
166 451 lineto
166 452 lineto
166 453 lineto
167 453 lineto
167 454 lineto
167 455 lineto
168 456 lineto
168 457 lineto
169 458 lineto
169 459 lineto
169 460 lineto
170 461 lineto
170 462 lineto
171 463 lineto
171 464 lineto
171 465 lineto
172 465 lineto
172 466 lineto
172 467 lineto
173 468 lineto
173 469 lineto
173 470 lineto
174 470 lineto
174 471 lineto
174 472 lineto
175 472 lineto
175 473 lineto
175 474 lineto
175 475 lineto
176 475 lineto
176 476 lineto
176 477 lineto
177 477 lineto
177 478 lineto
177 479 lineto
178 479 lineto
178 480 lineto
178 481 lineto
179 482 lineto
179 483 lineto
180 484 lineto
180 485 lineto
180 486 lineto
181 486 lineto
181 487 lineto
182 488 lineto
182 489 lineto
182 490 lineto
183 490 lineto
183 491 lineto
183 492 lineto
184 492 lineto
184 493 lineto
184 494 lineto
185 494 lineto
185 495 lineto
185 496 lineto
186 496 lineto
186 497 lineto
186 498 lineto
187 498 lineto
187 499 lineto
187 500 lineto
188 500 lineto
188 501 lineto
188 502 lineto
189 502 lineto
189 503 lineto
189 504 lineto
190 504 lineto
190 505 lineto
191 506 lineto
191 507 lineto
192 508 lineto
192 509 lineto
193 509 lineto
193 510 lineto
193 511 lineto
194 511 lineto
194 512 lineto
195 513 lineto
195 514 lineto
196 514 lineto
196 515 lineto
196 516 lineto
197 516 lineto
197 517 lineto
198 518 lineto
198 519 lineto
199 519 lineto
199 520 lineto
200 521 lineto
200 522 lineto
201 522 lineto
201 523 lineto
202 524 lineto
202 525 lineto
203 525 lineto
203 526 lineto
204 526 lineto
204 527 lineto
205 528 lineto
205 529 lineto
206 529 lineto
206 530 lineto
207 530 lineto
207 531 lineto
208 531 lineto
208 532 lineto
209 532 lineto
209 533 lineto
210 534 lineto
211 535 lineto
211 536 lineto
212 536 lineto
212 537 lineto
213 537 lineto
214 538 lineto
215 539 lineto
216 539 lineto
216 540 lineto
217 540 lineto
217 541 lineto
218 541 lineto
218 542 lineto
219 542 lineto
220 543 lineto
221 543 lineto
221 544 lineto
222 544 lineto
223 544 lineto
223 545 lineto
224 545 lineto
225 545 lineto
225 546 lineto
226 546 lineto
227 546 lineto
227 547 lineto
228 547 lineto
229 547 lineto
230 547 lineto
231 547 lineto
231 548 lineto
232 548 lineto
233 548 lineto
234 548 lineto
235 548 lineto
236 548 lineto
237 548 lineto
238 548 lineto
239 548 lineto
240 548 lineto
241 547 lineto
242 547 lineto
243 547 lineto
244 547 lineto
244 546 lineto
245 546 lineto
246 546 lineto
246 545 lineto
247 545 lineto
248 545 lineto
248 544 lineto
249 544 lineto
250 544 lineto
250 543 lineto
251 543 lineto
252 542 lineto
253 542 lineto
253 541 lineto
254 541 lineto
254 540 lineto
255 540 lineto
256 539 lineto
257 538 lineto
258 538 lineto
258 537 lineto
259 537 lineto
259 536 lineto
260 536 lineto
260 535 lineto
261 535 lineto
261 534 lineto
262 533 lineto
263 532 lineto
263 531 lineto
264 531 lineto
264 530 lineto
265 530 lineto
265 529 lineto
266 529 lineto
266 528 lineto
267 527 lineto
267 526 lineto
268 526 lineto
268 525 lineto
269 525 lineto
269 524 lineto
270 523 lineto
270 522 lineto
271 522 lineto
271 521 lineto
272 520 lineto
272 519 lineto
273 519 lineto
273 518 lineto
274 517 lineto
274 516 lineto
275 516 lineto
275 515 lineto
275 514 lineto
276 514 lineto
276 513 lineto
277 513 lineto
277 512 lineto
277 511 lineto
278 511 lineto
278 510 lineto
279 509 lineto
279 508 lineto
280 507 lineto
280 506 lineto
281 505 lineto
281 504 lineto
282 503 lineto
282 502 lineto
283 502 lineto
283 501 lineto
283 500 lineto
284 500 lineto
284 499 lineto
284 498 lineto
285 498 lineto
285 497 lineto
285 496 lineto
286 496 lineto
286 495 lineto
286 494 lineto
287 494 lineto
287 493 lineto
287 492 lineto
288 492 lineto
288 491 lineto
288 490 lineto
289 490 lineto
289 489 lineto
289 488 lineto
290 488 lineto
290 487 lineto
290 486 lineto
291 485 lineto
291 484 lineto
292 483 lineto
292 482 lineto
292 481 lineto
293 481 lineto
293 480 lineto
293 479 lineto
294 479 lineto
294 478 lineto
294 477 lineto
295 477 lineto
295 476 lineto
295 475 lineto
296 474 lineto
296 473 lineto
297 472 lineto
297 471 lineto
297 470 lineto
298 469 lineto
298 468 lineto
299 467 lineto
299 466 lineto
299 465 lineto
300 465 lineto
300 464 lineto
300 463 lineto
301 462 lineto
301 461 lineto
301 460 lineto
302 460 lineto
302 459 lineto
302 458 lineto
303 457 lineto
303 456 lineto
304 455 lineto
304 454 lineto
304 453 lineto
305 452 lineto
305 451 lineto
306 450 lineto
306 449 lineto
306 448 lineto
307 447 lineto
307 446 lineto
307 445 lineto
308 445 lineto
308 444 lineto
308 443 lineto
308 442 lineto
309 442 lineto
309 441 lineto
309 440 lineto
310 439 lineto
310 438 lineto
310 437 lineto
311 436 lineto
311 435 lineto
312 434 lineto
312 433 lineto
312 432 lineto
313 432 lineto
313 431 lineto
313 430 lineto
313 429 lineto
314 428 lineto
314 427 lineto
315 426 lineto
315 425 lineto
315 424 lineto
315 423 lineto
316 423 lineto
316 422 lineto
316 421 lineto
317 420 lineto
317 419 lineto
317 418 lineto
318 417 lineto
318 416 lineto
318 415 lineto
319 415 lineto
319 414 lineto
319 413 lineto
319 412 lineto
320 411 lineto
320 410 lineto
320 409 lineto
321 409 lineto
321 408 lineto
321 407 lineto
322 406 lineto
322 405 lineto
322 404 lineto
323 403 lineto
323 402 lineto
323 401 lineto
324 400 lineto
324 399 lineto
324 398 lineto
325 397 lineto
325 396 lineto
325 395 lineto
326 394 lineto
326 393 lineto
326 392 lineto
327 391 lineto
327 390 lineto
327 389 lineto
328 388 lineto
328 387 lineto
328 386 lineto
329 385 lineto
329 384 lineto
329 383 lineto
330 382 lineto
330 381 lineto
330 380 lineto
331 380 lineto
331 379 lineto
331 378 lineto
331 377 lineto
332 376 lineto
332 375 lineto
332 374 lineto
333 374 lineto
333 373 lineto
333 372 lineto
333 371 lineto
334 370 lineto
334 369 lineto
334 368 lineto
335 367 lineto
335 366 lineto
335 365 lineto
336 364 lineto
336 363 lineto
336 362 lineto
337 361 lineto
337 360 lineto
337 359 lineto
337 358 lineto
338 358 lineto
338 357 lineto
338 356 lineto
339 355 lineto
339 354 lineto
339 353 lineto
340 352 lineto
340 351 lineto
340 350 lineto
340 349 lineto
341 349 lineto
341 348 lineto
341 347 lineto
342 346 lineto
342 345 lineto
342 344 lineto
342 343 lineto
343 343 lineto
343 342 lineto
343 341 lineto
343 340 lineto
344 340 lineto
344 339 lineto
344 338 lineto
344 337 lineto
345 336 lineto
345 335 lineto
345 334 lineto
346 333 lineto
346 332 lineto
346 331 lineto
347 330 lineto
347 329 lineto
347 328 lineto
348 327 lineto
348 326 lineto
348 325 lineto
349 324 lineto
349 323 lineto
349 322 lineto
350 321 lineto
350 320 lineto
350 319 lineto
351 318 lineto
351 317 lineto
351 316 lineto
351 315 lineto
352 315 lineto
352 314 lineto
352 313 lineto
353 312 lineto
353 311 lineto
353 310 lineto
353 309 lineto
354 308 lineto
354 307 lineto
354 306 lineto
355 306 lineto
355 305 lineto
355 304 lineto
355 303 lineto
356 302 lineto
356 301 lineto
356 300 lineto
357 299 lineto
357 298 lineto
357 297 lineto
358 297 lineto
358 296 lineto
358 295 lineto
358 294 lineto
359 293 lineto
359 292 lineto
359 291 lineto
360 290 lineto
360 289 lineto
360 288 lineto
361 287 lineto
361 286 lineto
361 285 lineto
362 284 lineto
362 283 lineto
362 282 lineto
362 281 lineto
363 281 lineto
363 280 lineto
363 279 lineto
364 278 lineto
364 277 lineto
364 276 lineto
364 275 lineto
365 275 lineto
365 274 lineto
365 273 lineto
366 272 lineto
366 271 lineto
366 270 lineto
367 269 lineto
367 268 lineto
367 267 lineto
368 266 lineto
368 265 lineto
368 264 lineto
369 263 lineto
369 262 lineto
369 261 lineto
370 260 lineto
370 259 lineto
370 258 lineto
371 257 lineto
371 256 lineto
371 255 lineto
372 254 lineto
372 253 lineto
372 252 lineto
373 251 lineto
373 250 lineto
373 249 lineto
374 248 lineto
374 247 lineto
374 246 lineto
375 245 lineto
375 244 lineto
375 243 lineto
376 243 lineto
376 242 lineto
376 241 lineto
376 240 lineto
377 240 lineto
377 239 lineto
377 238 lineto
378 237 lineto
378 236 lineto
378 235 lineto
378 234 lineto
379 234 lineto
379 233 lineto
379 232 lineto
380 231 lineto
380 230 lineto
380 229 lineto
381 228 lineto
381 227 lineto
381 226 lineto
382 226 lineto
382 225 lineto
382 224 lineto
382 223 lineto
383 223 lineto
383 222 lineto
383 221 lineto
384 220 lineto
384 219 lineto
384 218 lineto
385 218 lineto
385 217 lineto
385 216 lineto
385 215 lineto
386 215 lineto
386 214 lineto
386 213 lineto
387 212 lineto
387 211 lineto
387 210 lineto
388 209 lineto
388 208 lineto
388 207 lineto
389 207 lineto
389 206 lineto
389 205 lineto
390 204 lineto
390 203 lineto
390 202 lineto
391 202 lineto
391 201 lineto
391 200 lineto
391 199 lineto
392 199 lineto
392 198 lineto
392 197 lineto
393 196 lineto
393 195 lineto
394 194 lineto
394 193 lineto
394 192 lineto
395 191 lineto
395 190 lineto
396 189 lineto
396 188 lineto
396 187 lineto
397 187 lineto
397 186 lineto
397 185 lineto
398 184 lineto
398 183 lineto
398 182 lineto
399 182 lineto
399 181 lineto
399 180 lineto
400 180 lineto
400 179 lineto
400 178 lineto
400 177 lineto
401 177 lineto
401 176 lineto
401 175 lineto
402 175 lineto
402 174 lineto
402 173 lineto
403 173 lineto
403 172 lineto
403 171 lineto
404 170 lineto
404 169 lineto
405 168 lineto
405 167 lineto
405 166 lineto
406 166 lineto
406 165 lineto
407 164 lineto
407 163 lineto
407 162 lineto
408 162 lineto
408 161 lineto
408 160 lineto
409 160 lineto
409 159 lineto
409 158 lineto
410 158 lineto
410 157 lineto
410 156 lineto
411 156 lineto
411 155 lineto
411 154 lineto
412 154 lineto
412 153 lineto
412 152 lineto
413 152 lineto
413 151 lineto
413 150 lineto
414 150 lineto
414 149 lineto
414 148 lineto
415 148 lineto
415 147 lineto
416 146 lineto
416 145 lineto
417 144 lineto
417 143 lineto
418 143 lineto
418 142 lineto
418 141 lineto
419 141 lineto
419 140 lineto
420 139 lineto
420 138 lineto
421 138 lineto
421 137 lineto
421 136 lineto
422 136 lineto
422 135 lineto
423 134 lineto
423 133 lineto
424 133 lineto
424 132 lineto
425 131 lineto
425 130 lineto
426 130 lineto
426 129 lineto
427 128 lineto
427 127 lineto
428 127 lineto
428 126 lineto
429 126 lineto
429 125 lineto
430 124 lineto
430 123 lineto
431 123 lineto
431 122 lineto
432 122 lineto
432 121 lineto
433 121 lineto
433 120 lineto
434 120 lineto
434 119 lineto
435 118 lineto
436 117 lineto
436 116 lineto
437 116 lineto
437 115 lineto
438 115 lineto
439 114 lineto
440 113 lineto
441 113 lineto
441 112 lineto
442 112 lineto
442 111 lineto
443 111 lineto
443 110 lineto
444 110 lineto
445 109 lineto
446 109 lineto
446 108 lineto
447 108 lineto
448 108 lineto
448 107 lineto
449 107 lineto
450 107 lineto
450 106 lineto
451 106 lineto
452 106 lineto
452 105 lineto
453 105 lineto
454 105 lineto
455 105 lineto
456 105 lineto
456 104 lineto
457 104 lineto
458 104 lineto
459 104 lineto
460 104 lineto
461 104 lineto
462 104 lineto
463 104 lineto
464 104 lineto
465 104 lineto
466 105 lineto
467 105 lineto
468 105 lineto
469 105 lineto
469 106 lineto
470 106 lineto
471 106 lineto
471 107 lineto
472 107 lineto
473 107 lineto
473 108 lineto
474 108 lineto
475 108 lineto
475 109 lineto
476 109 lineto
477 110 lineto
478 110 lineto
478 111 lineto
479 111 lineto
479 112 lineto
480 112 lineto
481 113 lineto
482 114 lineto
483 114 lineto
483 115 lineto
484 115 lineto
484 116 lineto
485 116 lineto
485 117 lineto
486 117 lineto
486 118 lineto
487 119 lineto
488 120 lineto
488 121 lineto
489 121 lineto
489 122 lineto
490 122 lineto
490 123 lineto
491 123 lineto
491 124 lineto
492 125 lineto
492 126 lineto
493 126 lineto
493 127 lineto
494 127 lineto
494 128 lineto
495 129 lineto
495 130 lineto
496 130 lineto
496 131 lineto
497 132 lineto
497 133 lineto
498 133 lineto
498 134 lineto
499 135 lineto
499 136 lineto
500 136 lineto
500 137 lineto
500 138 lineto
501 138 lineto
501 139 lineto
502 139 lineto
502 140 lineto
502 141 lineto
503 141 lineto
503 142 lineto
504 143 lineto
504 144 lineto
505 145 lineto
505 146 lineto
506 147 lineto
506 148 lineto
507 149 lineto
507 150 lineto
508 150 lineto
508 151 lineto
508 152 lineto
509 152 lineto
509 153 lineto
509 154 lineto
510 154 lineto
510 155 lineto
510 156 lineto
511 156 lineto
511 157 lineto
511 158 lineto
512 158 lineto
512 159 lineto
512 160 lineto
513 160 lineto
513 161 lineto
513 162 lineto
514 162 lineto
514 163 lineto
514 164 lineto
515 164 lineto
515 165 lineto
515 166 lineto
516 167 lineto
516 168 lineto
517 169 lineto
517 170 lineto
517 171 lineto
518 171 lineto
518 172 lineto
518 173 lineto
519 173 lineto
519 174 lineto
519 175 lineto
520 175 lineto
520 176 lineto
520 177 lineto
521 178 lineto
521 179 lineto
522 180 lineto
522 181 lineto
522 182 lineto
523 183 lineto
523 184 lineto
524 185 lineto
524 186 lineto
524 187 lineto
525 187 lineto
525 188 lineto
525 189 lineto
526 190 lineto
526 191 lineto
526 192 lineto
527 192 lineto
527 193 lineto
527 194 lineto
528 195 lineto
528 196 lineto
529 197 lineto
529 198 lineto
529 199 lineto
530 200 lineto
530 201 lineto
531 202 lineto
531 203 lineto
531 204 lineto
532 205 lineto
532 206 lineto
532 207 lineto
533 207 lineto
stroke
newpath
533 207 moveto
533 208 lineto
533 209 lineto
533 210 lineto
534 210 lineto
534 211 lineto
534 212 lineto
535 213 lineto
535 214 lineto
535 215 lineto
536 216 lineto
536 217 lineto
537 218 lineto
537 219 lineto
537 220 lineto
538 220 lineto
538 221 lineto
538 222 lineto
538 223 lineto
539 224 lineto
539 225 lineto
540 226 lineto
540 227 lineto
540 228 lineto
540 229 lineto
541 229 lineto
541 230 lineto
541 231 lineto
542 232 lineto
542 233 lineto
542 234 lineto
543 235 lineto
543 236 lineto
543 237 lineto
544 237 lineto
544 238 lineto
544 239 lineto
544 240 lineto
545 241 lineto
545 242 lineto
545 243 lineto
546 243 lineto
546 244 lineto
546 245 lineto
547 246 lineto
547 247 lineto
547 248 lineto
548 249 lineto
548 250 lineto
548 251 lineto
549 252 lineto
549 253 lineto
549 254 lineto
550 255 lineto
550 256 lineto
550 257 lineto
551 258 lineto
551 259 lineto
551 260 lineto
552 261 lineto
552 262 lineto
552 263 lineto
553 264 lineto
553 265 lineto
553 266 lineto
554 267 lineto
554 268 lineto
554 269 lineto
555 270 lineto
555 271 lineto
555 272 lineto
556 272 lineto
556 273 lineto
556 274 lineto
556 275 lineto
557 276 lineto
557 277 lineto
557 278 lineto
558 278 lineto
558 279 lineto
558 280 lineto
558 281 lineto
559 282 lineto
559 283 lineto
559 284 lineto
560 285 lineto
560 286 lineto
560 287 lineto
561 288 lineto
561 289 lineto
561 290 lineto
562 291 lineto
562 292 lineto
562 293 lineto
562 294 lineto
563 294 lineto
563 295 lineto
563 296 lineto
564 297 lineto
564 298 lineto
564 299 lineto
565 300 lineto
565 301 lineto
565 302 lineto
565 303 lineto
566 303 lineto
566 304 lineto
566 305 lineto
567 306 lineto
567 307 lineto
567 308 lineto
567 309 lineto
568 309 lineto
568 310 lineto
568 311 lineto
568 312 lineto
569 312 lineto
569 313 lineto
569 314 lineto
569 315 lineto
570 316 lineto
570 317 lineto
570 318 lineto
571 319 lineto
571 320 lineto
571 321 lineto
572 322 lineto
572 323 lineto
572 324 lineto
573 325 lineto
573 326 lineto
stroke
showpage
%%EOF
